TI-Praktikum-02-2c/simulation/qsim/sortierer.msim.vcd
$comment
	File created using the following command:
		vcd file sortierer.msim.vcd -direction
$end
$date
	Sun Dec 04 05:29:33 2022
$end
$version
	ModelSim Version 2020.1
$end
$timescale
	1ps
$end

$scope module sortierer_vhd_vec_tst $end
$var wire 1 ! clk $end
$var wire 1 " ind_sens $end
$var wire 1 # motor_dir_out $end
$var wire 1 $ motor_pwr_out $end
$var wire 1 % oe_in $end
$var wire 1 & oe_n_out $end
$var wire 1 ' opt_sens $end
$var wire 1 ( reset $end
$var wire 1 ) timer [4] $end
$var wire 1 * timer [3] $end
$var wire 1 + timer [2] $end
$var wire 1 , timer [1] $end
$var wire 1 - timer [0] $end
$var wire 1 . weiche_out $end

$scope module i1 $end
$var wire 1 / gnd $end
$var wire 1 0 vcc $end
$var wire 1 1 unknown $end
$var wire 1 2 devoe $end
$var wire 1 3 devclrn $end
$var wire 1 4 devpor $end
$var wire 1 5 ww_devoe $end
$var wire 1 6 ww_devclrn $end
$var wire 1 7 ww_devpor $end
$var wire 1 8 ww_reset $end
$var wire 1 9 ww_clk $end
$var wire 1 : ww_oe_in $end
$var wire 1 ; ww_opt_sens $end
$var wire 1 < ww_ind_sens $end
$var wire 1 = ww_oe_n_out $end
$var wire 1 > ww_weiche_out $end
$var wire 1 ? ww_motor_pwr_out $end
$var wire 1 @ ww_motor_dir_out $end
$var wire 1 A ww_timer [4] $end
$var wire 1 B ww_timer [3] $end
$var wire 1 C ww_timer [2] $end
$var wire 1 D ww_timer [1] $end
$var wire 1 E ww_timer [0] $end
$var wire 1 F \clk~inputclkctrl_INCLK_bus\ [3] $end
$var wire 1 G \clk~inputclkctrl_INCLK_bus\ [2] $end
$var wire 1 H \clk~inputclkctrl_INCLK_bus\ [1] $end
$var wire 1 I \clk~inputclkctrl_INCLK_bus\ [0] $end
$var wire 1 J \~QUARTUS_CREATED_GND~I_combout\ $end
$var wire 1 K \~QUARTUS_CREATED_UNVM~~busy\ $end
$var wire 1 L \oe_n_out~output_o\ $end
$var wire 1 M \weiche_out~output_o\ $end
$var wire 1 N \motor_pwr_out~output_o\ $end
$var wire 1 O \motor_dir_out~output_o\ $end
$var wire 1 P \timer[0]~output_o\ $end
$var wire 1 Q \timer[1]~output_o\ $end
$var wire 1 R \timer[2]~output_o\ $end
$var wire 1 S \timer[3]~output_o\ $end
$var wire 1 T \timer[4]~output_o\ $end
$var wire 1 U \oe_in~input_o\ $end
$var wire 1 V \clk~input_o\ $end
$var wire 1 W \clk~inputclkctrl_outclk\ $end
$var wire 1 X \time_s[0]~5_combout\ $end
$var wire 1 Y \opt_sens~input_o\ $end
$var wire 1 Z \Selector6~2_combout\ $end
$var wire 1 [ \ind_sens~input_o\ $end
$var wire 1 \ \Selector6~0_combout\ $end
$var wire 1 ] \next_main_state.resetting~0_combout\ $end
$var wire 1 ^ \reset~input_o\ $end
$var wire 1 _ \next_main_state.resetting~q\ $end
$var wire 1 ` \main_state.resetting~0_combout\ $end
$var wire 1 a \main_state.resetting~q\ $end
$var wire 1 b \Selector6~1_combout\ $end
$var wire 1 c \Selector6~3_combout\ $end
$var wire 1 d \Selector4~0_combout\ $end
$var wire 1 e \next_main_state.motorFWD_weicheK~q\ $end
$var wire 1 f \main_state.motorFWD_weicheK~q\ $end
$var wire 1 g \Selector3~0_combout\ $end
$var wire 1 h \Selector3~1_combout\ $end
$var wire 1 i \next_main_state.idle~q\ $end
$var wire 1 j \main_state.idle~0_combout\ $end
$var wire 1 k \main_state.idle~q\ $end
$var wire 1 l \cnt[0]~21_combout\ $end
$var wire 1 m \cnt[0]~22\ $end
$var wire 1 n \cnt[1]~23_combout\ $end
$var wire 1 o \cnt[1]~24\ $end
$var wire 1 p \cnt[2]~25_combout\ $end
$var wire 1 q \cnt[2]~26\ $end
$var wire 1 r \cnt[3]~27_combout\ $end
$var wire 1 s \cnt[3]~28\ $end
$var wire 1 t \cnt[4]~29_combout\ $end
$var wire 1 u \cnt[4]~30\ $end
$var wire 1 v \cnt[5]~31_combout\ $end
$var wire 1 w \cnt[5]~32\ $end
$var wire 1 x \cnt[6]~33_combout\ $end
$var wire 1 y \cnt[6]~34\ $end
$var wire 1 z \cnt[7]~35_combout\ $end
$var wire 1 { \cnt[7]~36\ $end
$var wire 1 | \cnt[8]~37_combout\ $end
$var wire 1 } \cnt[8]~38\ $end
$var wire 1 ~ \cnt[9]~39_combout\ $end
$var wire 1 !! \cnt[9]~40\ $end
$var wire 1 "! \cnt[10]~41_combout\ $end
$var wire 1 #! \cnt[10]~feeder_combout\ $end
$var wire 1 $! \cnt[10]~42\ $end
$var wire 1 %! \cnt[11]~43_combout\ $end
$var wire 1 &! \cnt[11]~44\ $end
$var wire 1 '! \cnt[12]~45_combout\ $end
$var wire 1 (! \cnt[12]~46\ $end
$var wire 1 )! \cnt[13]~47_combout\ $end
$var wire 1 *! \cnt[13]~48\ $end
$var wire 1 +! \cnt[14]~49_combout\ $end
$var wire 1 ,! \cnt[14]~50\ $end
$var wire 1 -! \cnt[15]~51_combout\ $end
$var wire 1 .! \cnt[15]~52\ $end
$var wire 1 /! \cnt[16]~53_combout\ $end
$var wire 1 0! \cnt[16]~54\ $end
$var wire 1 1! \cnt[17]~55_combout\ $end
$var wire 1 2! \cnt[17]~56\ $end
$var wire 1 3! \cnt[18]~57_combout\ $end
$var wire 1 4! \cnt[18]~58\ $end
$var wire 1 5! \cnt[19]~59_combout\ $end
$var wire 1 6! \Equal0~5_combout\ $end
$var wire 1 7! \cnt[19]~60\ $end
$var wire 1 8! \cnt[20]~61_combout\ $end
$var wire 1 9! \Equal0~0_combout\ $end
$var wire 1 :! \Equal0~1_combout\ $end
$var wire 1 ;! \Equal0~2_combout\ $end
$var wire 1 <! \Equal0~3_combout\ $end
$var wire 1 =! \Equal0~4_combout\ $end
$var wire 1 >! \time_s[0]~7_combout\ $end
$var wire 1 ?! \time_s[0]~8_combout\ $end
$var wire 1 @! \time_s[0]~6\ $end
$var wire 1 A! \time_s[1]~9_combout\ $end
$var wire 1 B! \time_s[1]~10\ $end
$var wire 1 C! \time_s[2]~11_combout\ $end
$var wire 1 D! \time_s[2]~12\ $end
$var wire 1 E! \time_s[3]~13_combout\ $end
$var wire 1 F! \time_s[3]~14\ $end
$var wire 1 G! \time_s[4]~15_combout\ $end
$var wire 1 H! \LessThan0~0_combout\ $end
$var wire 1 I! \Selector5~0_combout\ $end
$var wire 1 J! \next_main_state.motorFWD_weicheM~q\ $end
$var wire 1 K! \main_state.motorFWD_weicheM~q\ $end
$var wire 1 L! \Selector2~0_combout\ $end
$var wire 1 M! \weiche~q\ $end
$var wire 1 N! \Selector1~0_combout\ $end
$var wire 1 O! \motor_pwr~q\ $end
$var wire 1 P! \Selector0~0_combout\ $end
$var wire 1 Q! \motor_dir~q\ $end
$var wire 1 R! time_s [4] $end
$var wire 1 S! time_s [3] $end
$var wire 1 T! time_s [2] $end
$var wire 1 U! time_s [1] $end
$var wire 1 V! time_s [0] $end
$var wire 1 W! cnt [20] $end
$var wire 1 X! cnt [19] $end
$var wire 1 Y! cnt [18] $end
$var wire 1 Z! cnt [17] $end
$var wire 1 [! cnt [16] $end
$var wire 1 \! cnt [15] $end
$var wire 1 ]! cnt [14] $end
$var wire 1 ^! cnt [13] $end
$var wire 1 _! cnt [12] $end
$var wire 1 `! cnt [11] $end
$var wire 1 a! cnt [10] $end
$var wire 1 b! cnt [9] $end
$var wire 1 c! cnt [8] $end
$var wire 1 d! cnt [7] $end
$var wire 1 e! cnt [6] $end
$var wire 1 f! cnt [5] $end
$var wire 1 g! cnt [4] $end
$var wire 1 h! cnt [3] $end
$var wire 1 i! cnt [2] $end
$var wire 1 j! cnt [1] $end
$var wire 1 k! cnt [0] $end
$var wire 1 l! \ALT_INV_reset~input_o\ $end
$var wire 1 m! \ALT_INV_oe_in~input_o\ $end
$var wire 1 n! \ALT_INV_main_state.idle~q\ $end
$upscope $end
$upscope $end
$enddefinitions $end
#0
$dumpvars
0!
0"
0#
0$
x%
x&
0'
1(
0.
0/
10
x1
12
13
14
15
16
17
18
09
x:
0;
0<
x=
0>
0?
0@
0J
zK
xL
0M
0N
0O
0P
0Q
0R
0S
0T
xU
0V
0W
1X
0Y
0Z
0[
0\
0]
1^
0_
1`
0a
0b
0c
0d
0e
0f
1g
0h
0i
1j
0k
1l
0m
0n
1o
0p
0q
0r
1s
0t
0u
0v
1w
0x
0y
0z
1{
0|
0}
0~
1!!
0"!
0#!
0$!
0%!
1&!
0'!
0(!
0)!
1*!
0+!
0,!
0-!
1.!
0/!
00!
01!
12!
03!
04!
05!
06!
17!
08!
19!
0:!
0;!
0<!
1=!
1>!
0?!
0@!
0A!
1B!
0C!
0D!
0E!
1F!
0G!
0H!
0I!
0J!
0K!
0L!
0M!
0N!
0O!
0P!
0Q!
0l!
xm!
1n!
0A
0B
0C
0D
0E
0R!
0S!
0T!
0U!
0V!
0W!
0X!
0Y!
0Z!
0[!
0\!
0]!
0^!
0_!
0`!
0a!
0b!
0c!
0d!
0e!
0f!
0g!
0h!
0i!
0j!
0k!
1F
1G
1H
0I
0)
0*
0+
0,
0-
$end
#5000
1!
19
1V
1I
1W
#10000
0!
09
0V
0I
0W
#15000
1!
19
1V
1I
1W
#20000
0!
09
0V
0I
0W
#25000
1!
19
1V
1I
1W
#30000
0!
09
0V
0I
0W
#35000
1!
19
1V
1I
1W
#40000
0!
09
0V
0I
0W
#45000
1!
19
1V
1I
1W
#50000
0!
09
0V
0I
0W
#55000
1!
19
1V
1I
1W
#60000
0!
09
0V
0I
0W
#65000
1!
19
1V
1I
1W
#70000
0!
09
0V
0I
0W
#75000
1!
19
1V
1I
1W
#80000
0!
09
0V
0I
0W
#85000
1!
19
1V
1I
1W
#90000
0!
0(
09
08
0^
0V
1l!
0I
1?!
0W
#95000
1!
19
1V
1I
1W
1a
1k
0n!
0>!
1b
1N!
1P!
0?!
#100000
0!
09
0V
0I
0W
#105000
1!
19
1V
1I
1W
1k!
1O!
1Q!
1O
1N
0l
1m
1@
1?
1n
1#
1$
#110000
0!
09
0V
0I
0W
#115000
1!
19
1V
1I
1W
0k!
1j!
0n
0o
1l
0m
1n
1o
1p
0p
#120000
0!
09
0V
0I
0W
#125000
1!
19
1V
1I
1W
1k!
0l
1m
0n
0o
1p
#130000
0!
09
0V
0I
0W
#135000
1!
19
1V
1I
1W
0k!
0j!
1i!
0p
1q
1n
1o
1l
0m
0n
1p
0q
1r
0r
#140000
0!
09
0V
0I
0W
#145000
1!
19
1V
1I
1W
1k!
0l
1m
1n
#150000
0!
09
0V
0I
0W
#155000
1!
19
1V
1I
1W
0k!
1j!
0n
0o
1l
0m
1n
1o
0p
1q
1r
1p
0q
0r
#160000
0!
09
0V
0I
0W
#165000
1!
19
1V
1I
1W
1k!
0l
1m
0n
0o
0p
1q
1r
#170000
0!
09
0V
0I
0W
#175000
1!
19
1V
1I
1W
0k!
0j!
0i!
1h!
0r
0s
1p
0q
1n
1o
1l
0m
0n
0p
1r
1s
1t
0t
#180000
0!
09
0V
0I
0W
#185000
1!
19
1V
1I
1W
1k!
0l
1m
1n
#190000
0!
09
0V
0I
0W
#195000
1!
19
1V
1I
1W
0k!
1j!
0n
0o
1l
0m
09!
0=!
1n
1o
1p
0p
1>!
1?!
#200000
0!
09
0V
0I
0W
#205000
1!
19
1V
1I
1W
0j!
0h!
1V!
1P
0X
1@!
0r
0n
19!
1E
1=!
1A!
1-
0>!
0?!
#210000
0!
09
0V
0I
0W
#215000
1!
19
1V
1I
1W
1k!
0l
1m
1n
#220000
0!
09
0V
0I
0W
#225000
1!
19
1V
1I
1W
0k!
1j!
0n
0o
1l
0m
1n
1o
1p
0p
#230000
0!
09
0V
0I
0W
#235000
1!
19
1V
1I
1W
1k!
0l
1m
0n
0o
1p
#240000
0!
09
0V
0I
0W
#245000
1!
19
1V
1I
1W
0k!
0j!
1i!
0p
1q
1n
1o
1l
0m
0n
1p
0q
1r
0r
#250000
0!
09
0V
0I
0W
#255000
1!
19
1V
1I
1W
1k!
0l
1m
1n
#260000
0!
09
0V
0I
0W
#265000
1!
19
1V
1I
1W
0k!
1j!
0n
0o
1l
0m
1n
1o
0p
1q
1r
1p
0q
0r
#270000
0!
09
0V
0I
0W
#275000
1!
19
1V
1I
1W
1k!
0l
1m
0n
0o
0p
1q
1r
#280000
0!
09
0V
0I
0W
#285000
1!
19
1V
1I
1W
0k!
0j!
0i!
1h!
0r
0s
1p
0q
1n
1o
1l
0m
0n
0p
1r
1s
1t
0t
#290000
0!
09
0V
0I
0W
#295000
1!
19
1V
1I
1W
1k!
0l
1m
1n
#300000
0!
09
0V
0I
0W
#305000
1!
19
1V
1I
1W
0k!
1j!
0n
0o
1l
0m
09!
0=!
1n
1o
1p
0p
1>!
1?!
#310000
0!
09
0V
0I
0W
#315000
1!
19
1V
1I
1W
0j!
0h!
0V!
1U!
1Q
0P
0A!
0B!
1H!
1X
0@!
0r
0n
19!
1D
0E
1=!
1A!
1B!
1c
1C!
0-
1,
1]
1h
0C!
0>!
0?!
#320000
0!
09
0V
0I
0W
#325000
1!
19
1V
1I
1W
1_
1i
1k!
0l
1m
0j
0`
1n
#330000
0!
09
0V
0I
0W
#335000
1!
19
1V
1I
1W
0a
0k
0k!
1j!
1n!
0n
0o
1l
0m
1>!
0b
0N!
0P!
0c
1?!
1n
1o
1p
0p
#340000
0!
09
0V
0I
0W
#345000
1!
19
1V
1I
1W
0j!
0U!
0O!
0Q!
0O
0N
0Q
0A!
0H!
0n
0@
0?
0D
0#
0$
0,
#350000
0!
09
0V
0I
0W
#355000
1!
19
1V
1I
1W
#360000
0!
09
0V
0I
0W
#365000
1!
19
1V
1I
1W
#370000
0!
09
0V
0I
0W
#375000
1!
19
1V
1I
1W
#380000
0!
09
0V
0I
0W
#385000
1!
19
1V
1I
1W
#390000
0!
09
0V
0I
0W
#395000
1!
19
1V
1I
1W
#400000
0!
09
0V
0I
0W
#405000
1!
19
1V
1I
1W
#410000
0!
09
0V
0I
0W
#415000
1!
19
1V
1I
1W
#420000
0!
09
0V
0I
0W
#425000
1!
19
1V
1I
1W
#430000
0!
09
0V
0I
0W
#435000
1!
19
1V
1I
1W
#440000
0!
09
0V
0I
0W
#445000
1!
19
1V
1I
1W
#450000
0!
09
0V
0I
0W
#455000
1!
19
1V
1I
1W
#460000
0!
09
0V
0I
0W
#465000
1!
19
1V
1I
1W
#470000
0!
09
0V
0I
0W
#475000
1!
19
1V
1I
1W
#480000
0!
09
0V
0I
0W
#485000
1!
19
1V
1I
1W
#490000
0!
09
0V
0I
0W
#495000
1!
19
1V
1I
1W
#500000
0!
09
0V
0I
0W
#505000
1!
19
1V
1I
1W
#510000
0!
09
0V
0I
0W
#515000
1!
19
1V
1I
1W
#520000
0!
09
0V
0I
0W
#525000
1!
19
1V
1I
1W
#530000
0!
09
0V
0I
0W
#535000
1!
19
1V
1I
1W
#540000
0!
09
0V
0I
0W
#545000
1!
19
1V
1I
1W
#550000
0!
09
0V
0I
0W
#555000
1!
19
1V
1I
1W
#560000
0!
09
0V
0I
0W
#565000
1!
19
1V
1I
1W
#570000
0!
09
0V
0I
0W
#575000
1!
19
1V
1I
1W
#580000
0!
09
0V
0I
0W
#585000
1!
19
1V
1I
1W
#590000
0!
1(
09
18
1^
0V
0l!
0I
0?!
0_
0i
0W
0h
1j
0]
1`
#595000
1!
19
1V
1I
1W
#600000
0!
09
0V
0I
0W
#605000
1!
19
1V
1I
1W
#610000
0!
09
0V
0I
0W
#615000
1!
19
1V
1I
1W
#620000
0!
09
0V
0I
0W
#625000
1!
19
1V
1I
1W
#630000
0!
09
0V
0I
0W
#635000
1!
19
1V
1I
1W
#640000
0!
09
0V
0I
0W
#645000
1!
19
1V
1I
1W
#650000
0!
09
0V
0I
0W
#655000
1!
19
1V
1I
1W
#660000
0!
09
0V
0I
0W
#665000
1!
19
1V
1I
1W
#670000
0!
09
0V
0I
0W
#675000
1!
19
1V
1I
1W
#680000
0!
09
0V
0I
0W
#685000
1!
19
1V
1I
1W
#690000
0!
09
0V
0I
0W
#695000
1!
19
1V
1I
1W
#700000
0!
09
0V
0I
0W
#705000
1!
19
1V
1I
1W
#710000
0!
09
0V
0I
0W
#715000
1!
19
1V
1I
1W
#720000
0!
09
0V
0I
0W
#725000
1!
19
1V
1I
1W
#730000
0!
09
0V
0I
0W
#735000
1!
19
1V
1I
1W
#740000
0!
09
0V
0I
0W
#745000
1!
19
1V
1I
1W
#750000
0!
09
0V
0I
0W
#755000
1!
19
1V
1I
1W
#760000
0!
09
0V
0I
0W
#765000
1!
19
1V
1I
1W
#770000
0!
09
0V
0I
0W
#775000
1!
19
1V
1I
1W
#780000
0!
09
0V
0I
0W
#785000
1!
19
1V
1I
1W
#790000
0!
09
0V
0I
0W
#795000
1!
19
1V
1I
1W
#800000
0!
09
0V
0I
0W
#805000
1!
19
1V
1I
1W
#810000
0!
09
0V
0I
0W
#815000
1!
19
1V
1I
1W
#820000
0!
09
0V
0I
0W
#825000
1!
19
1V
1I
1W
#830000
0!
09
0V
0I
0W
#835000
1!
19
1V
1I
1W
#840000
0!
09
0V
0I
0W
#845000
1!
19
1V
1I
1W
#850000
0!
09
0V
0I
0W
#855000
1!
19
1V
1I
1W
#860000
0!
09
0V
0I
0W
#865000
1!
19
1V
1I
1W
#870000
0!
09
0V
0I
0W
#875000
1!
19
1V
1I
1W
#880000
0!
09
0V
0I
0W
#885000
1!
19
1V
1I
1W
#890000
0!
09
0V
0I
0W
#895000
1!
19
1V
1I
1W
#900000
0!
09
0V
0I
0W
#905000
1!
19
1V
1I
1W
#910000
0!
09
0V
0I
0W
#915000
1!
19
1V
1I
1W
#920000
0!
09
0V
0I
0W
#925000
1!
19
1V
1I
1W
#930000
0!
09
0V
0I
0W
#935000
1!
19
1V
1I
1W
#940000
0!
09
0V
0I
0W
#945000
1!
19
1V
1I
1W
#950000
0!
09
0V
0I
0W
#955000
1!
19
1V
1I
1W
#960000
0!
09
0V
0I
0W
#965000
1!
19
1V
1I
1W
#970000
0!
09
0V
0I
0W
#975000
1!
19
1V
1I
1W
#980000
0!
09
0V
0I
0W
#985000
1!
19
1V
1I
1W
#990000
0!
09
0V
0I
0W
#995000
1!
19
1V
1I
1W
