TI-Praktikum-02-2c/simulation/qsim/sortierer.msim.vcd
$comment
	File created using the following command:
		vcd file sortierer.msim.vcd -direction
$end
$date
	Sun Dec 04 12:51:50 2022
$end
$version
	ModelSim Version 2020.1
$end
$timescale
	1ps
$end

$scope module sortierer_vhd_vec_tst $end
$var wire 1 ! clk $end
$var wire 1 " ind_sens $end
$var wire 1 # motor_dir_out $end
$var wire 1 $ motor_pwr_out $end
$var wire 1 % oe_in $end
$var wire 1 & oe_n_out $end
$var wire 1 ' opt_sens $end
$var wire 1 ( reset $end
$var wire 1 ) weiche_out $end

$scope module i1 $end
$var wire 1 * gnd $end
$var wire 1 + vcc $end
$var wire 1 , unknown $end
$var wire 1 - devoe $end
$var wire 1 . devclrn $end
$var wire 1 / devpor $end
$var wire 1 0 ww_devoe $end
$var wire 1 1 ww_devclrn $end
$var wire 1 2 ww_devpor $end
$var wire 1 3 ww_reset $end
$var wire 1 4 ww_clk $end
$var wire 1 5 ww_oe_in $end
$var wire 1 6 ww_opt_sens $end
$var wire 1 7 ww_ind_sens $end
$var wire 1 8 ww_oe_n_out $end
$var wire 1 9 ww_weiche_out $end
$var wire 1 : ww_motor_pwr_out $end
$var wire 1 ; ww_motor_dir_out $end
$var wire 1 < \clk~inputclkctrl_INCLK_bus\ [3] $end
$var wire 1 = \clk~inputclkctrl_INCLK_bus\ [2] $end
$var wire 1 > \clk~inputclkctrl_INCLK_bus\ [1] $end
$var wire 1 ? \clk~inputclkctrl_INCLK_bus\ [0] $end
$var wire 1 @ \~QUARTUS_CREATED_GND~I_combout\ $end
$var wire 1 A \~QUARTUS_CREATED_UNVM~~busy\ $end
$var wire 1 B \oe_n_out~output_o\ $end
$var wire 1 C \weiche_out~output_o\ $end
$var wire 1 D \motor_pwr_out~output_o\ $end
$var wire 1 E \motor_dir_out~output_o\ $end
$var wire 1 F \oe_in~input_o\ $end
$var wire 1 G \clk~input_o\ $end
$var wire 1 H \clk~inputclkctrl_outclk\ $end
$var wire 1 I \ind_sens~input_o\ $end
$var wire 1 J \Add1~0_combout\ $end
$var wire 1 K \cnt[0]~21_combout\ $end
$var wire 1 L \cnt[16]~54\ $end
$var wire 1 M \cnt[17]~55_combout\ $end
$var wire 1 N \reset~input_o\ $end
$var wire 1 O \cnt[17]~56\ $end
$var wire 1 P \cnt[18]~57_combout\ $end
$var wire 1 Q \cnt[18]~58\ $end
$var wire 1 R \cnt[19]~59_combout\ $end
$var wire 1 S \cnt[19]~60\ $end
$var wire 1 T \cnt[20]~61_combout\ $end
$var wire 1 U \Equal0~1_combout\ $end
$var wire 1 V \Equal0~0_combout\ $end
$var wire 1 W \Equal0~2_combout\ $end
$var wire 1 X \Equal0~3_combout\ $end
$var wire 1 Y \Equal0~4_combout\ $end
$var wire 1 Z \time_s[4]~1_combout\ $end
$var wire 1 [ \cnt[0]~22\ $end
$var wire 1 \ \cnt[1]~23_combout\ $end
$var wire 1 ] \cnt[1]~24\ $end
$var wire 1 ^ \cnt[2]~25_combout\ $end
$var wire 1 _ \cnt[2]~26\ $end
$var wire 1 ` \cnt[3]~27_combout\ $end
$var wire 1 a \cnt[3]~28\ $end
$var wire 1 b \cnt[4]~29_combout\ $end
$var wire 1 c \cnt[4]~30\ $end
$var wire 1 d \cnt[5]~31_combout\ $end
$var wire 1 e \cnt[5]~32\ $end
$var wire 1 f \cnt[6]~33_combout\ $end
$var wire 1 g \cnt[6]~34\ $end
$var wire 1 h \cnt[7]~35_combout\ $end
$var wire 1 i \cnt[7]~36\ $end
$var wire 1 j \cnt[8]~37_combout\ $end
$var wire 1 k \cnt[8]~38\ $end
$var wire 1 l \cnt[9]~39_combout\ $end
$var wire 1 m \cnt[9]~40\ $end
$var wire 1 n \cnt[10]~41_combout\ $end
$var wire 1 o \cnt[10]~42\ $end
$var wire 1 p \cnt[11]~43_combout\ $end
$var wire 1 q \cnt[11]~44\ $end
$var wire 1 r \cnt[12]~45_combout\ $end
$var wire 1 s \cnt[12]~46\ $end
$var wire 1 t \cnt[13]~47_combout\ $end
$var wire 1 u \cnt[13]~48\ $end
$var wire 1 v \cnt[14]~49_combout\ $end
$var wire 1 w \cnt[14]~50\ $end
$var wire 1 x \cnt[15]~51_combout\ $end
$var wire 1 y \cnt[15]~52\ $end
$var wire 1 z \cnt[16]~53_combout\ $end
$var wire 1 { \Equal0~5_combout\ $end
$var wire 1 | \Equal0~6_combout\ $end
$var wire 1 } \time_s~5_combout\ $end
$var wire 1 ~ \Add1~1\ $end
$var wire 1 !! \Add1~2_combout\ $end
$var wire 1 "! \time_s~4_combout\ $end
$var wire 1 #! \Add1~3\ $end
$var wire 1 $! \Add1~4_combout\ $end
$var wire 1 %! \time_s~3_combout\ $end
$var wire 1 &! \Add1~5\ $end
$var wire 1 '! \Add1~6_combout\ $end
$var wire 1 (! \time_s~2_combout\ $end
$var wire 1 )! \LessThan0~0_combout\ $end
$var wire 1 *! \opt_sens~input_o\ $end
$var wire 1 +! \Selector6~3_combout\ $end
$var wire 1 ,! \next_main_state.resetting~0_combout\ $end
$var wire 1 -! \next_main_state.resetting~q\ $end
$var wire 1 .! \main_state.resetting~0_combout\ $end
$var wire 1 /! \main_state.resetting~q\ $end
$var wire 1 0! \Selector6~4_combout\ $end
$var wire 1 1! \Selector4~0_combout\ $end
$var wire 1 2! \next_main_state.motorFWD_weicheK~q\ $end
$var wire 1 3! \main_state.motorFWD_weicheK~q\ $end
$var wire 1 4! \Selector6~2_combout\ $end
$var wire 1 5! \Selector3~0_combout\ $end
$var wire 1 6! \Selector6~5_combout\ $end
$var wire 1 7! \Selector3~1_combout\ $end
$var wire 1 8! \next_main_state.idle~q\ $end
$var wire 1 9! \main_state.idle~0_combout\ $end
$var wire 1 :! \main_state.idle~q\ $end
$var wire 1 ;! \Add1~7\ $end
$var wire 1 <! \Add1~8_combout\ $end
$var wire 1 =! \time_s~0_combout\ $end
$var wire 1 >! \Selector5~0_combout\ $end
$var wire 1 ?! \Selector5~1_combout\ $end
$var wire 1 @! \next_main_state.motorFWD_weicheM~q\ $end
$var wire 1 A! \main_state.motorFWD_weicheM~q\ $end
$var wire 1 B! \Selector2~0_combout\ $end
$var wire 1 C! \weiche~q\ $end
$var wire 1 D! \Selector1~0_combout\ $end
$var wire 1 E! \motor_pwr~q\ $end
$var wire 1 F! \Selector0~0_combout\ $end
$var wire 1 G! \motor_dir~q\ $end
$var wire 1 H! cnt [20] $end
$var wire 1 I! cnt [19] $end
$var wire 1 J! cnt [18] $end
$var wire 1 K! cnt [17] $end
$var wire 1 L! cnt [16] $end
$var wire 1 M! cnt [15] $end
$var wire 1 N! cnt [14] $end
$var wire 1 O! cnt [13] $end
$var wire 1 P! cnt [12] $end
$var wire 1 Q! cnt [11] $end
$var wire 1 R! cnt [10] $end
$var wire 1 S! cnt [9] $end
$var wire 1 T! cnt [8] $end
$var wire 1 U! cnt [7] $end
$var wire 1 V! cnt [6] $end
$var wire 1 W! cnt [5] $end
$var wire 1 X! cnt [4] $end
$var wire 1 Y! cnt [3] $end
$var wire 1 Z! cnt [2] $end
$var wire 1 [! cnt [1] $end
$var wire 1 \! cnt [0] $end
$var wire 1 ]! time_s [4] $end
$var wire 1 ^! time_s [3] $end
$var wire 1 _! time_s [2] $end
$var wire 1 `! time_s [1] $end
$var wire 1 a! time_s [0] $end
$var wire 1 b! \ALT_INV_reset~input_o\ $end
$var wire 1 c! \ALT_INV_oe_in~input_o\ $end
$upscope $end
$upscope $end
$enddefinitions $end
#0
$dumpvars
0!
0"
0#
0$
x%
x&
0'
1(
0)
0*
1+
x,
1-
1.
1/
10
11
12
13
04
x5
06
07
x8
09
0:
0;
0@
zA
xB
0C
0D
0E
xF
0G
0H
0I
0J
1K
0L
0M
1N
1O
0P
0Q
0R
1S
0T
1U
0V
1W
1X
1Y
1Z
0[
0\
1]
0^
0_
0`
1a
0b
0c
0d
1e
0f
0g
0h
1i
0j
0k
0l
1m
0n
0o
0p
1q
0r
0s
0t
1u
0v
0w
0x
1y
0z
1{
1|
1}
1~
1!!
0"!
1#!
0$!
0%!
0&!
0'!
0(!
0)!
0*!
0+!
0,!
0-!
1.!
0/!
00!
01!
02!
03!
04!
15!
06!
07!
08!
19!
0:!
1;!
0<!
0=!
0>!
0?!
0@!
0A!
0B!
0C!
0D!
0E!
0F!
0G!
0b!
xc!
0H!
0I!
0J!
0K!
0L!
0M!
0N!
0O!
0P!
0Q!
0R!
0S!
0T!
0U!
0V!
0W!
0X!
0Y!
0Z!
0[!
0\!
0]!
0^!
0_!
0`!
0a!
1<
1=
1>
0?
$end
#5000
1!
14
1G
1?
1H
#10000
0!
04
0G
0?
0H
#15000
1!
14
1G
1?
1H
#20000
0!
04
0G
0?
0H
#25000
1!
14
1G
1?
1H
#30000
0!
04
0G
0?
0H
#35000
1!
14
1G
1?
1H
#40000
0!
04
0G
0?
0H
#45000
1!
14
1G
1?
1H
#50000
0!
04
0G
0?
0H
#55000
1!
14
1G
1?
1H
#60000
0!
04
0G
0?
0H
#65000
1!
14
1G
1?
1H
#70000
0!
04
0G
0?
0H
#75000
1!
14
1G
1?
1H
#80000
0!
04
0G
0?
0H
#85000
1!
14
1G
1?
1H
#90000
0!
0(
04
03
0N
0G
1b!
0?
0H
#95000
1!
14
1G
1?
1H
1a!
1/!
1:!
0Z
1"!
1D!
1F!
1J
0~
0!!
0"!
#100000
0!
04
0G
0?
0H
#105000
1!
14
1G
1?
1H
1\!
1E!
1G!
1E
1D
0K
1[
1V
1;
1:
1\
1#
1$
#110000
0!
04
0G
0?
0H
#115000
1!
14
1G
1?
1H
0\!
1[!
0\
0]
1K
0[
1\
1]
1^
0^
#120000
0!
04
0G
0?
0H
#125000
1!
14
1G
1?
1H
1\!
0K
1[
0\
0]
1^
#130000
0!
04
0G
0?
0H
#135000
1!
14
1G
1?
1H
0\!
0[!
1Z!
0^
1_
1\
1]
1K
0[
0\
1^
0_
1`
0`
#140000
0!
04
0G
0?
0H
#145000
1!
14
1G
1?
1H
1\!
0K
1[
1\
#150000
0!
04
0G
0?
0H
#155000
1!
14
1G
1?
1H
0\!
1[!
0\
0]
1K
0[
1\
1]
0^
1_
1`
1^
0_
0`
#160000
0!
04
0G
0?
0H
#165000
1!
14
1G
1?
1H
1\!
0K
1[
0\
0]
0^
1_
1`
#170000
0!
04
0G
0?
0H
#175000
1!
14
1G
1?
1H
0\!
0[!
0Z!
1Y!
0`
0a
1^
0_
1\
1]
1K
0[
0\
0^
1`
1a
1b
0b
#180000
0!
04
0G
0?
0H
#185000
1!
14
1G
1?
1H
1\!
0K
1[
1\
#190000
0!
04
0G
0?
0H
#195000
1!
14
1G
1?
1H
0\!
1[!
0\
0]
1K
0[
1\
1]
1^
0^
#200000
0!
04
0G
0?
0H
#205000
1!
14
1G
1?
1H
1\!
0K
1[
0\
0]
1^
#210000
0!
04
0G
0?
0H
#215000
1!
14
1G
1?
1H
0\!
0[!
1Z!
0^
1_
1\
1]
1K
0[
0\
1^
0_
0`
0a
1b
1`
1a
0b
#220000
0!
04
0G
0?
0H
#225000
1!
14
1G
1?
1H
1\!
0K
1[
1\
#230000
0!
04
0G
0?
0H
#235000
1!
14
1G
1?
1H
0\!
1[!
0\
0]
1K
0[
1\
1]
0^
1_
0`
0a
1^
0_
1`
1a
1b
0b
#240000
0!
04
0G
0?
0H
#245000
1!
14
1G
1?
1H
1\!
0K
1[
0\
0]
0^
1_
0`
0a
1b
#250000
0!
04
0G
0?
0H
#255000
1!
14
1G
1?
1H
0\!
0[!
0Z!
0Y!
1X!
0b
1c
1`
1a
1^
0_
1\
1]
1K
0[
0V
0\
0^
0`
1b
0c
1d
0d
#260000
0!
04
0G
0?
0H
#265000
1!
14
1G
1?
1H
1\!
0K
1[
1V
1\
#270000
0!
04
0G
0?
0H
#275000
1!
14
1G
1?
1H
0\!
1[!
0\
0]
1K
0[
1\
1]
1^
0^
#280000
0!
04
0G
0?
0H
#285000
1!
14
1G
1?
1H
1\!
0K
1[
0\
0]
1^
#290000
0!
04
0G
0?
0H
#295000
1!
14
1G
1?
1H
0\!
0[!
1Z!
0^
1_
1\
1]
1K
0[
0\
1^
0_
1`
0`
#300000
0!
04
0G
0?
0H
#305000
1!
14
1G
1?
1H
1\!
0K
1[
1\
#310000
0!
04
0G
0?
0H
#315000
1!
14
1G
1?
1H
0\!
1[!
0\
0]
1K
0[
1\
1]
0^
1_
1`
1^
0_
0`
#320000
0!
04
0G
0?
0H
#325000
1!
14
1G
1?
1H
1\!
0K
1[
0\
0]
0^
1_
1`
#330000
0!
04
0G
0?
0H
#335000
1!
14
1G
1?
1H
0\!
0[!
0Z!
1Y!
0`
0a
1^
0_
1\
1]
1K
0[
0\
0^
1`
1a
0b
1c
1d
1b
0c
0d
#340000
0!
04
0G
0?
0H
#345000
1!
14
1G
1?
1H
1\!
0K
1[
1\
#350000
0!
04
0G
0?
0H
#355000
1!
14
1G
1?
1H
0\!
1[!
0\
0]
1K
0[
1\
1]
1^
0^
#360000
0!
04
0G
0?
0H
#365000
1!
14
1G
1?
1H
1\!
0K
1[
0\
0]
1^
#370000
0!
04
0G
0?
0H
#375000
1!
14
1G
1?
1H
0\!
0[!
1Z!
0^
1_
1\
1]
1K
0[
0\
1^
0_
0`
0a
0b
1c
1`
1a
1b
0c
1d
0d
#380000
0!
04
0G
0?
0H
#385000
1!
14
1G
1?
1H
1\!
0K
1[
1\
#390000
0!
04
0G
0?
0H
#395000
1!
14
1G
1?
1H
0\!
1[!
0\
0]
1K
0[
1\
1]
0^
1_
0`
0a
1^
0_
1`
1a
0b
1c
1d
1b
0c
0d
#400000
0!
04
0G
0?
0H
#405000
1!
14
1G
1?
1H
1\!
0K
1[
0\
0]
0^
1_
0`
0a
0b
1c
1d
#410000
0!
04
0G
0?
0H
#415000
1!
14
1G
1?
1H
0\!
0[!
0Z!
0Y!
0X!
1W!
0d
0e
1b
0c
1`
1a
1^
0_
1\
1]
1K
0[
0V
0\
0^
0`
0b
1d
1e
1f
0f
#420000
0!
04
0G
0?
0H
#425000
1!
14
1G
1?
1H
1\!
0K
1[
1V
1\
#430000
0!
04
0G
0?
0H
#435000
1!
14
1G
1?
1H
0\!
1[!
0\
0]
1K
0[
1\
1]
1^
0^
#440000
0!
04
0G
0?
0H
#445000
1!
14
1G
1?
1H
1\!
0K
1[
0\
0]
1^
#450000
0!
04
0G
0?
0H
#455000
1!
14
1G
1?
1H
0\!
0[!
1Z!
0^
1_
1\
1]
1K
0[
0\
1^
0_
1`
0`
#460000
0!
04
0G
0?
0H
#465000
1!
14
1G
1?
1H
1\!
0K
1[
1\
#470000
0!
04
0G
0?
0H
#475000
1!
14
1G
1?
1H
0\!
1[!
0\
0]
1K
0[
1\
1]
0^
1_
1`
1^
0_
0`
#480000
0!
04
0G
0?
0H
#485000
1!
14
1G
1?
1H
1\!
0K
1[
0\
0]
0^
1_
1`
#490000
0!
04
0G
0?
0H
#495000
1!
14
1G
1?
1H
0\!
0[!
0Z!
1Y!
0`
0a
1^
0_
1\
1]
1K
0[
0\
0^
1`
1a
1b
0b
#500000
0!
04
0G
0?
0H
#505000
1!
14
1G
1?
1H
1\!
0K
1[
1\
#510000
0!
04
0G
0?
0H
#515000
1!
14
1G
1?
1H
0\!
1[!
0\
0]
1K
0[
1\
1]
1^
0^
#520000
0!
04
0G
0?
0H
#525000
1!
14
1G
1?
1H
1\!
0K
1[
0\
0]
1^
#530000
0!
04
0G
0?
0H
#535000
1!
14
1G
1?
1H
0\!
0[!
1Z!
0^
1_
1\
1]
1K
0[
0\
1^
0_
0`
0a
1b
1`
1a
0b
#540000
0!
04
0G
0?
0H
#545000
1!
14
1G
1?
1H
1\!
0K
1[
1\
#550000
0!
04
0G
0?
0H
#555000
1!
14
1G
1?
1H
0\!
1[!
0\
0]
1K
0[
1\
1]
0^
1_
0`
0a
1^
0_
1`
1a
1b
0b
#560000
0!
04
0G
0?
0H
#565000
1!
14
1G
1?
1H
1\!
0K
1[
0\
0]
0^
1_
0`
0a
1b
#570000
0!
04
0G
0?
0H
#575000
1!
14
1G
1?
1H
0\!
0[!
0Z!
0Y!
1X!
0b
1c
1`
1a
1^
0_
1\
1]
1K
0[
0V
0\
0^
0`
1b
0c
0d
0e
1f
1d
1e
0f
#580000
0!
04
0G
0?
0H
#585000
1!
14
1G
1?
1H
1\!
0K
1[
1V
1\
#590000
0!
1(
04
13
1N
0G
0b!
0?
0a!
0H
0J
1~
0}
1!!
1"!
#595000
1!
14
1G
1?
1H
#600000
0!
04
0G
0?
0H
#605000
1!
14
1G
1?
1H
#610000
0!
04
0G
0?
0H
#615000
1!
14
1G
1?
1H
#620000
0!
04
0G
0?
0H
#625000
1!
14
1G
1?
1H
#630000
0!
04
0G
0?
0H
#635000
1!
14
1G
1?
1H
#640000
0!
04
0G
0?
0H
#645000
1!
14
1G
1?
1H
#650000
0!
04
0G
0?
0H
#655000
1!
14
1G
1?
1H
#660000
0!
04
0G
0?
0H
#665000
1!
14
1G
1?
1H
#670000
0!
04
0G
0?
0H
#675000
1!
14
1G
1?
1H
#680000
0!
04
0G
0?
0H
#685000
1!
14
1G
1?
1H
#690000
0!
04
0G
0?
0H
#695000
1!
14
1G
1?
1H
#700000
0!
04
0G
0?
0H
#705000
1!
14
1G
1?
1H
#710000
0!
04
0G
0?
0H
#715000
1!
14
1G
1?
1H
#720000
0!
04
0G
0?
0H
#725000
1!
14
1G
1?
1H
#730000
0!
04
0G
0?
0H
#735000
1!
14
1G
1?
1H
#740000
0!
04
0G
0?
0H
#745000
1!
14
1G
1?
1H
#750000
0!
04
0G
0?
0H
#755000
1!
14
1G
1?
1H
#760000
0!
04
0G
0?
0H
#765000
1!
14
1G
1?
1H
#770000
0!
04
0G
0?
0H
#775000
1!
14
1G
1?
1H
#780000
0!
04
0G
0?
0H
#785000
1!
14
1G
1?
1H
#790000
0!
04
0G
0?
0H
#795000
1!
14
1G
1?
1H
#800000
0!
04
0G
0?
0H
#805000
1!
14
1G
1?
1H
#810000
0!
04
0G
0?
0H
#815000
1!
14
1G
1?
1H
#820000
0!
04
0G
0?
0H
#825000
1!
14
1G
1?
1H
#830000
0!
04
0G
0?
0H
#835000
1!
14
1G
1?
1H
#840000
0!
04
0G
0?
0H
#845000
1!
14
1G
1?
1H
#850000
0!
04
0G
0?
0H
#855000
1!
14
1G
1?
1H
#860000
0!
04
0G
0?
0H
#865000
1!
14
1G
1?
1H
#870000
0!
04
0G
0?
0H
#875000
1!
14
1G
1?
1H
#880000
0!
04
0G
0?
0H
#885000
1!
14
1G
1?
1H
#890000
0!
04
0G
0?
0H
#895000
1!
14
1G
1?
1H
#900000
0!
04
0G
0?
0H
#905000
1!
14
1G
1?
1H
#910000
0!
04
0G
0?
0H
#915000
1!
14
1G
1?
1H
#920000
0!
04
0G
0?
0H
#925000
1!
14
1G
1?
1H
#930000
0!
04
0G
0?
0H
#935000
1!
14
1G
1?
1H
#940000
0!
04
0G
0?
0H
#945000
1!
14
1G
1?
1H
#950000
0!
04
0G
0?
0H
#955000
1!
14
1G
1?
1H
#960000
0!
04
0G
0?
0H
#965000
1!
14
1G
1?
1H
#970000
0!
04
0G
0?
0H
#975000
1!
14
1G
1?
1H
#980000
0!
04
0G
0?
0H
#985000
1!
14
1G
1?
1H
#990000
0!
04
0G
0?
0H
#995000
1!
14
1G
1?
1H
