TI-Praktikum-01-1d/simulation/qsim/multiplexer.msim.vcd
$comment
	File created using the following command:
		vcd file multiplexer.msim.vcd -direction
$end
$date
	Tue Nov 01 22:49:19 2022
$end
$version
	ModelSim Version 2020.1
$end
$timescale
	1ps
$end

$scope module multiplexer_vhd_vec_tst $end
$var wire 1 ! A [7] $end
$var wire 1 " A [6] $end
$var wire 1 # A [5] $end
$var wire 1 $ A [4] $end
$var wire 1 % A [3] $end
$var wire 1 & A [2] $end
$var wire 1 ' A [1] $end
$var wire 1 ( A [0] $end
$var wire 1 ) S [2] $end
$var wire 1 * S [1] $end
$var wire 1 + S [0] $end
$var wire 1 , X $end

$scope module i1 $end
$var wire 1 - gnd $end
$var wire 1 . vcc $end
$var wire 1 / unknown $end
$var wire 1 0 devoe $end
$var wire 1 1 devclrn $end
$var wire 1 2 devpor $end
$var wire 1 3 ww_devoe $end
$var wire 1 4 ww_devclrn $end
$var wire 1 5 ww_devpor $end
$var wire 1 6 ww_A [7] $end
$var wire 1 7 ww_A [6] $end
$var wire 1 8 ww_A [5] $end
$var wire 1 9 ww_A [4] $end
$var wire 1 : ww_A [3] $end
$var wire 1 ; ww_A [2] $end
$var wire 1 < ww_A [1] $end
$var wire 1 = ww_A [0] $end
$var wire 1 > ww_S [2] $end
$var wire 1 ? ww_S [1] $end
$var wire 1 @ ww_S [0] $end
$var wire 1 A ww_X $end
$var wire 1 B \~QUARTUS_CREATED_GND~I_combout\ $end
$var wire 1 C \~QUARTUS_CREATED_UNVM~~busy\ $end
$var wire 1 D \X~output_o\ $end
$var wire 1 E \A[5]~input_o\ $end
$var wire 1 F \S[1]~input_o\ $end
$var wire 1 G \A[4]~input_o\ $end
$var wire 1 H \A[7]~input_o\ $end
$var wire 1 I \A[6]~input_o\ $end
$var wire 1 J \S[0]~input_o\ $end
$var wire 1 K \Mux0~2_combout\ $end
$var wire 1 L \Mux0~3_combout\ $end
$var wire 1 M \S[2]~input_o\ $end
$var wire 1 N \A[0]~input_o\ $end
$var wire 1 O \A[3]~input_o\ $end
$var wire 1 P \A[1]~input_o\ $end
$var wire 1 Q \Mux0~0_combout\ $end
$var wire 1 R \A[2]~input_o\ $end
$var wire 1 S \Mux0~1_combout\ $end
$var wire 1 T \Mux0~4_combout\ $end
$upscope $end
$upscope $end
$enddefinitions $end
#0
$dumpvars
1,
0-
1.
x/
10
11
12
13
14
15
1A
0B
zC
1D
1E
1F
1G
1H
0I
0J
0K
1L
1M
0N
0O
1P
1Q
1R
1S
1T
1!
0"
1#
1$
0%
1&
1'
0(
1)
1*
0+
16
07
18
19
0:
1;
1<
0=
1>
1?
0@
$end
#10000
1"
0$
0&
0)
0*
0;
09
17
0?
0>
0M
0F
1I
0G
0R
1K
0L
0Q
0S
0T
1L
0D
1T
0A
1D
0,
1A
1,
#20000
1$
19
1G
#30000
0"
0!
1+
07
06
1@
1J
0H
0I
0K
0L
0T
0D
0A
0,
#40000
1"
1!
1)
1*
0#
1%
1:
08
17
16
1?
1>
1M
1F
1H
1I
0E
1O
1K
1Q
1L
#50000
0!
0)
0*
1#
0%
0+
1&
1(
1=
1;
0:
18
06
0@
0?
0>
0M
0F
0J
0H
1E
0O
1R
1N
1S
0K
0Q
1T
1D
0S
0L
1A
0T
1,
0D
0A
0,
#60000
1!
0#
1+
0&
0;
08
16
1@
1J
1H
0E
0R
1K
1L
1T
1D
1A
1,
#70000
0!
0+
1&
1*
1%
0"
0'
0<
1;
1:
07
06
0@
1?
1F
0J
0H
0I
1O
1R
0P
0K
0L
0T
0D
0A
0,
#80000
1+
0*
1'
1)
0$
1@
0?
1>
1<
09
0G
1P
1M
0F
1J
1S
1T
1D
1A
1,
#90000
1$
1!
0&
0%
1"
1#
0(
0=
0;
0:
19
18
17
16
1H
1I
1E
1G
0O
0R
0N
0S
1K
1L
0T
0D
0A
0,
#100000
0$
1&
1%
0#
0'
0)
0<
1;
1:
09
08
0>
0M
0E
0G
1O
1R
0P
1S
1T
1D
1A
1,
#110000
1$
0&
1#
0!
0;
19
18
06
0H
1E
1G
0R
0S
#120000
0#
1!
1'
1)
0+
1*
1<
08
16
0@
1?
1>
1M
1F
0J
1H
0E
1P
0K
1Q
0T
0D
1S
0L
0A
1T
0,
1D
1A
1,
#130000
0'
1+
0*
0%
0<
0:
1@
0?
0F
1J
0O
0P
0S
1K
0Q
1L
0T
0D
0A
0,
#140000
0+
1%
1#
0)
1&
1(
0@
0>
1=
1;
1:
18
1E
1O
1R
1N
0M
0J
1T
1Q
1D
1S
1A
1,
#150000
1)
0&
0(
1*
0!
0$
1?
1>
0=
0;
09
06
0H
0G
0R
0N
1M
1F
0Q
0L
0K
1L
0S
0T
0D
0A
0,
#160000
0)
1(
0*
1!
1$
0%
0#
1'
0"
0?
0>
1=
1<
0:
19
08
07
16
1H
0I
0E
1G
0O
1P
1N
0M
0F
1T
0L
1K
1D
1L
0T
1A
0D
1T
1,
0A
1D
0,
1A
1,
#170000
1)
0(
0$
1#
1>
0=
09
18
1E
0G
0N
1M
0T
0D
0A
0,
#180000
1(
0#
1*
0'
1"
1=
0<
08
17
1?
1F
1I
0E
0P
1N
0K
0L
#190000
0(
1#
0*
0"
0)
1$
1&
1+
0=
1;
19
18
07
1@
0?
0>
0M
0F
1J
0I
1E
1G
1R
0N
1S
#200000
1(
0#
1*
1"
0$
1'
1=
1<
09
08
17
1?
1F
1I
0E
0G
1P
1N
1K
1Q
#210000
1#
0*
0"
1$
1)
0+
0!
1%
1:
19
18
07
06
0@
0?
1>
1M
0F
0J
0H
0I
1E
1G
1O
0K
1L
1T
1D
0L
1A
1,
#220000
0#
1+
1!
0&
0;
08
16
1@
1J
1H
0E
0R
0Q
0S
0T
0D
0A
0,
#230000
0+
0!
1&
1*
0$
0)
0%
0(
0'
0@
1?
0>
0=
0<
1;
0:
09
06
0H
0G
0O
1R
0P
0N
0M
1F
0J
#240000
1!
1)
1%
1#
1"
1:
18
17
16
1>
1M
1H
1I
1E
1O
1L
#250000
0)
1+
0&
1$
1@
0>
0;
19
1G
0R
0M
1J
1K
1Q
1T
1D
1A
1,
#260000
1&
0#
0"
0*
1'
1<
1;
08
07
0?
0F
0I
0E
1R
1P
0K
0Q
1S
0L
0T
0D
0A
0,
#270000
0&
1"
1*
0'
1)
0$
0%
0<
0;
0:
09
17
1?
1>
1M
1F
1I
0G
0O
0R
0P
0S
1K
1Q
1T
1D
0T
1A
0D
1,
0A
0,
#280000
1&
0"
0*
0)
1(
1=
1;
07
0?
0>
0M
0F
0I
1R
1N
1S
0K
1L
0Q
0L
1T
1D
0T
1A
0D
1,
0A
0,
#290000
1"
1*
0(
1#
0+
0=
18
17
0@
1?
1F
0J
1I
1E
0N
0S
1L
1T
1D
1A
1,
#300000
0"
1(
1'
1$
0!
1=
1<
19
07
06
0H
0I
1G
1P
1N
1Q
1S
#310000
1"
0*
0&
0;
17
0?
0F
1I
0R
0L
0Q
0S
0T
0D
0A
0,
#320000
1&
0'
0$
0#
0<
1;
09
08
0E
0G
1R
0P
#330000
0&
0"
1%
0;
1:
07
0I
1O
0R
1Q
1S
#340000
1"
1!
1+
17
16
1@
1J
1H
1I
1K
0Q
0S
1L
1T
1D
1A
1,
#350000
1&
0%
1$
1)
1;
0:
19
1>
1M
1G
0O
1R
1S
0T
0D
1T
0A
1D
0,
1A
1,
#360000
0&
0$
0"
0!
0+
1'
1<
0;
09
07
06
0@
0J
0H
0I
0G
0R
1P
0K
0S
0T
0L
0D
0A
0,
#370000
1+
0'
0)
1*
1@
1?
0>
0<
0P
0M
1F
1J
1K
1Q
1S
#380000
1)
0*
1!
1%
0?
1>
1:
16
1H
1O
1M
0F
1L
1T
0Q
0K
1D
0L
0S
1A
0T
1,
0D
0A
0,
#390000
0)
0!
0%
1'
1&
1#
0(
0>
0=
1<
1;
0:
18
06
0H
1E
0O
1R
1P
0N
0M
1S
#400000
1)
1!
0&
1(
1*
1$
1?
1>
1=
0;
19
16
1H
1G
0R
1N
1M
1F
1Q
1T
0S
1L
1K
1D
0T
1S
1A
0D
1T
1,
0A
1D
0,
1A
1,
#410000
0)
0!
0(
0*
1%
0?
0>
0=
1:
06
0H
1O
0N
0M
0F
0S
0Q
0K
0L
0T
0D
0A
0,
#420000
1!
1*
1&
0'
0#
0+
1"
0<
1;
08
17
16
0@
1?
1F
0J
1H
1I
0E
1R
0P
#430000
0"
1)
1(
0%
0$
1=
0:
09
07
1>
1M
0I
0G
0O
1N
#440000
1"
0(
1%
0!
0*
0&
1'
1#
0=
1<
0;
1:
18
17
06
0?
0F
0H
1I
1E
1O
0R
1P
0N
1Q
1S
1T
1D
1A
1,
#450000
1(
0%
1*
0)
1$
1=
0:
19
1?
0>
0M
1F
1G
0O
1N
1L
0T
0D
1T
0A
1D
0,
1A
1,
#460000
1)
1!
0#
1+
1@
1>
08
16
1H
0E
1M
1J
0L
1K
1L
#470000
0!
0(
0$
0"
1&
0'
0=
0<
1;
09
07
06
0H
0I
0G
1R
0P
0N
0S
0L
0T
0D
0A
0,
#480000
1(
1$
1'
0+
1=
1<
19
0@
0J
1G
1P
1N
1L
0K
1S
0L
1T
1D
1A
1,
#490000
0(
1+
1"
1#
0=
18
17
1@
1J
1I
1E
0N
1L
1K
0S
0T
0D
0A
0,
#500000
0+
0"
0#
1!
0&
1%
0@
0;
1:
08
07
16
1H
0I
0E
1O
0R
0J
1S
0K
0L
1T
1D
1A
1,
#510000
1+
1#
0!
0$
0*
1@
0?
09
18
06
0H
1E
0G
0F
1J
0S
0Q
0T
0D
0A
0,
#520000
0+
1"
1&
0%
0@
1;
0:
17
1I
0O
1R
0J
#530000
0"
0&
1%
0#
1(
0)
1=
0;
1:
08
07
0>
0M
0I
0E
1O
0R
1N
1Q
1S
#540000
1"
1&
0(
1)
1+
1$
0=
1;
19
17
1@
1>
1M
1J
1I
1G
1R
0N
1K
0Q
0S
1T
1D
0T
1S
1L
1A
0D
1T
1,
0A
1D
0,
1A
1,
#550000
0"
1(
0)
0$
1#
1!
0'
1=
0<
09
18
07
16
0>
0M
1H
0I
1E
0G
0P
1N
0K
0L
0T
0D
0A
0,
#560000
1"
0(
1$
0#
1*
0=
19
08
17
1?
1F
1I
0E
1G
0N
1K
1Q
0S
1L
1T
1D
1A
1,
#570000
0"
1#
0*
1)
0!
1'
0&
0+
0%
1<
0;
0:
18
07
06
0@
0?
1>
1M
0F
0J
0H
0I
1E
0O
0R
1P
1S
0K
0Q
0T
0D
0S
0L
1T
0A
1D
0T
0,
1A
0D
1,
0A
0,
#580000
1"
0#
1*
1&
1+
0$
1;
09
08
17
1@
1?
1F
1J
1I
0E
0G
1R
1S
1K
1Q
0S
1T
1D
0T
1A
0D
1,
0A
0,
#590000
0"
1#
0&
0+
1$
1!
0'
0<
0;
19
18
07
16
0@
0J
1H
0I
1E
1G
0R
0P
1L
0K
0Q
1S
0S
1T
1D
0T
1A
0D
1,
0A
0,
#600000
0#
1&
1+
0$
0!
1'
0*
1(
1=
1<
1;
09
08
06
1@
0?
0F
1J
0H
0E
0G
1R
1P
1N
1S
0L
1T
1D
1A
1,
#610000
0+
1!
1"
1%
0@
1:
17
16
1H
1I
1O
0J
0S
1Q
1K
1L
1S
0T
0D
1T
0A
1D
0,
1A
1,
#620000
0!
0"
0&
0(
0)
0=
0;
07
06
0>
0M
0H
0I
0R
0N
0K
0L
0T
0D
0A
0,
#630000
1!
1"
1&
1(
1$
1=
1;
19
17
16
1H
1I
1G
1R
1N
1K
1L
1T
1D
1A
1,
#640000
0"
0%
1#
0:
18
07
0I
1E
0O
0Q
0S
#650000
1%
0#
0$
1+
1*
1:
09
08
1@
1?
1F
1J
0E
0G
1O
1S
0L
1Q
0T
0D
0A
0,
#660000
0+
1"
0(
1)
0'
0@
1>
0=
0<
17
1I
0P
0N
1M
0J
1T
0Q
0K
1D
0S
1A
0T
1,
0D
0A
0,
#670000
1+
0"
1(
1'
0%
1$
0!
0&
1@
1=
1<
0;
0:
19
07
06
0H
0I
1G
0O
0R
1P
1N
1J
1Q
1K
1L
1S
1T
1D
1A
1,
#680000
1"
0'
1%
0$
1!
1&
0)
1#
0<
1;
1:
09
18
17
16
0>
0M
1H
1I
1E
0G
1O
1R
0P
0L
0T
0D
0A
0,
#690000
1'
0%
1$
0!
0&
0(
0=
1<
0;
0:
19
06
0H
1G
0O
0R
1P
0N
0S
1L
1T
1D
1A
1,
#700000
0'
0$
0"
1)
0#
0*
0<
09
08
07
0?
1>
1M
0F
0I
0E
0G
0P
0K
0Q
0T
0D
0L
0A
0,
#710000
1'
1$
1"
1*
1!
1&
0+
1<
1;
19
17
16
0@
1?
1F
0J
1H
1I
1G
1R
1P
1Q
1S
1T
1D
1A
1,
#720000
0$
0"
0*
0!
0&
1+
1#
1%
0;
1:
09
18
07
06
1@
0?
0F
1J
0H
0I
1E
0G
1O
0R
0S
0Q
0T
0D
0A
0,
#730000
1$
1*
1&
0#
0'
0<
1;
19
08
1?
1F
0E
1G
1R
0P
1S
1K
1Q
0S
1L
1T
1D
0T
1A
0D
1,
0A
0,
#740000
0*
0&
1'
0+
0@
0?
1<
0;
0R
1P
0F
0J
0K
1S
1T
0L
1D
1A
1,
#750000
1*
1&
1"
1!
1(
1?
1=
1;
17
16
1H
1I
1R
1N
1F
#760000
0*
0&
0"
0!
0$
1#
0%
0?
0;
0:
09
18
07
06
0H
0I
1E
0G
0O
0R
0F
0Q
0S
0T
0D
0A
0,
#770000
1*
1"
1!
1%
1+
1@
1?
1:
17
16
1H
1I
1O
1F
1J
1L
1Q
1K
0L
1S
1T
1D
1A
1,
#780000
0!
0+
0#
0(
0'
0=
0<
08
06
0@
0J
0H
0E
0P
0N
0K
0Q
0S
0T
0D
0A
0,
#790000
1#
0*
0%
1&
1;
0:
18
0?
0F
1E
0O
1R
#800000
1(
1'
1$
1=
1<
19
1G
1P
1N
#810000
0(
0'
0$
0#
1*
0&
1!
0"
0)
0=
0<
0;
09
08
07
16
1?
0>
0M
1F
1H
0I
0E
0G
0R
0P
0N
#820000
1(
1$
1#
0*
0!
1"
1%
1+
1=
1:
19
18
17
06
1@
0?
0F
1J
0H
1I
1E
1G
1O
1N
1K
1L
1T
1D
1A
1,
#830000
0(
0$
0#
1*
1!
0%
0+
0=
0:
09
08
16
0@
1?
1F
0J
1H
0E
0G
0O
0N
0K
0L
0T
0D
0A
0,
#840000
1%
1'
1&
1)
1<
1;
1:
1>
1M
1O
1R
1P
1Q
1S
1T
1D
1A
1,
#850000
0%
0'
0&
1$
0*
0!
1+
0"
0<
0;
0:
19
07
06
1@
0?
0F
1J
0H
0I
1G
0O
0R
0P
0S
0Q
0T
0D
0A
0,
#860000
1%
1'
1*
1!
1(
1#
1=
1<
1:
18
16
1?
1F
1H
1E
1O
1P
1N
1K
1L
1Q
1S
1T
1D
1A
1,
#870000
0%
0'
0!
0(
1&
0$
1"
0)
0=
0<
1;
0:
09
17
06
0>
0M
0H
1I
0G
0O
1R
0P
0N
0S
0L
0T
0D
0A
0,
#880000
1%
1'
1!
1$
0"
0#
1<
1:
19
08
07
16
1H
0I
0E
1G
1O
1P
1L
1T
1D
1A
1,
#890000
0'
0!
0$
1"
1(
0&
1)
0+
1=
0<
0;
09
17
06
0@
1>
1M
0J
0H
1I
0G
0R
0P
1N
0L
0K
0Q
1S
0T
0D
0S
1T
0A
1D
0T
0,
1A
0D
1,
0A
0,
#900000
1'
1$
0"
0(
0%
0*
0=
1<
0:
19
07
0?
0F
0I
1G
0O
1P
0N
#910000
0'
1%
1*
1+
0<
1:
1@
1?
1F
1J
1O
0P
1K
1Q
1L
#920000
1'
0%
0*
0+
0$
1"
1&
0)
1<
1;
0:
09
17
0@
0?
0>
0M
0F
0J
1I
0G
0O
1R
1P
1S
0K
0Q
1T
1D
0S
0L
1A
0T
1,
0D
0A
0,
#930000
1%
1*
1$
0&
1(
1=
0;
1:
19
1?
1F
1G
1O
0R
1N
1Q
1S
#940000
0$
0(
0'
1)
0=
0<
09
1>
1M
0G
0P
0N
0Q
1T
1D
0S
1A
0T
1,
0D
0A
0,
#950000
1(
1'
0)
0%
1&
1+
1!
1=
1<
1;
0:
16
1@
0>
0M
1J
1H
0O
1R
1P
1N
1K
1Q
1S
#960000
0(
0'
1)
0&
0+
0*
1#
0=
0<
0;
18
0@
0?
1>
1M
0F
0J
1E
0R
0P
0N
1L
0Q
1T
1D
0S
1A
0T
1,
0D
0A
0,
#970000
1(
0)
1&
1+
1*
0#
1%
0"
1=
1;
1:
08
07
1@
1?
0>
0M
1F
1J
0I
0E
1O
1R
1N
1S
0L
1Q
1T
1D
0T
1A
0D
1,
0A
0,
#980000
0(
1)
0&
0*
0!
0=
0;
06
0?
1>
1M
0F
0H
0R
0N
0S
0K
1L
0Q
1T
1D
0L
0T
1A
0D
1,
0A
0,
#990000
0)
1!
0+
1#
0%
1"
1'
0@
0>
1<
0:
18
17
16
1H
1I
1E
0O
1P
0M
0J
1K
1L
1T
1D
1A
1,
