TI-Praktikum-01-1e/simulation/qsim/demultiplexer.msim.vcd
$comment
	File created using the following command:
		vcd file demultiplexer.msim.vcd -direction
$end
$date
	Tue Nov 01 23:26:55 2022
$end
$version
	ModelSim Version 2020.1
$end
$timescale
	1ps
$end

$scope module demultiplexer_vhd_vec_tst $end
$var wire 1 ! a $end
$var wire 1 " s [2] $end
$var wire 1 # s [1] $end
$var wire 1 $ s [0] $end
$var wire 1 % x [7] $end
$var wire 1 & x [6] $end
$var wire 1 ' x [5] $end
$var wire 1 ( x [4] $end
$var wire 1 ) x [3] $end
$var wire 1 * x [2] $end
$var wire 1 + x [1] $end
$var wire 1 , x [0] $end

$scope module i1 $end
$var wire 1 - gnd $end
$var wire 1 . vcc $end
$var wire 1 / unknown $end
$var wire 1 0 devoe $end
$var wire 1 1 devclrn $end
$var wire 1 2 devpor $end
$var wire 1 3 ww_devoe $end
$var wire 1 4 ww_devclrn $end
$var wire 1 5 ww_devpor $end
$var wire 1 6 ww_a $end
$var wire 1 7 ww_s [2] $end
$var wire 1 8 ww_s [1] $end
$var wire 1 9 ww_s [0] $end
$var wire 1 : ww_x [7] $end
$var wire 1 ; ww_x [6] $end
$var wire 1 < ww_x [5] $end
$var wire 1 = ww_x [4] $end
$var wire 1 > ww_x [3] $end
$var wire 1 ? ww_x [2] $end
$var wire 1 @ ww_x [1] $end
$var wire 1 A ww_x [0] $end
$var wire 1 B \~QUARTUS_CREATED_GND~I_combout\ $end
$var wire 1 C \~QUARTUS_CREATED_UNVM~~busy\ $end
$var wire 1 D \x[0]~output_o\ $end
$var wire 1 E \x[1]~output_o\ $end
$var wire 1 F \x[2]~output_o\ $end
$var wire 1 G \x[3]~output_o\ $end
$var wire 1 H \x[4]~output_o\ $end
$var wire 1 I \x[5]~output_o\ $end
$var wire 1 J \x[6]~output_o\ $end
$var wire 1 K \x[7]~output_o\ $end
$var wire 1 L \s[1]~input_o\ $end
$var wire 1 M \s[0]~input_o\ $end
$var wire 1 N \a~input_o\ $end
$var wire 1 O \s[2]~input_o\ $end
$var wire 1 P \x~0_combout\ $end
$var wire 1 Q \x~1_combout\ $end
$var wire 1 R \x~2_combout\ $end
$var wire 1 S \x~3_combout\ $end
$var wire 1 T \x~4_combout\ $end
$var wire 1 U \x~5_combout\ $end
$var wire 1 V \x~6_combout\ $end
$var wire 1 W \x~7_combout\ $end
$upscope $end
$upscope $end
$enddefinitions $end
#0
$dumpvars
1!
0-
1.
x/
10
11
12
13
14
15
16
0B
zC
0D
0E
0F
1G
0H
0I
0J
0K
0L
0M
1N
1O
0P
0Q
0R
1S
0T
0U
0V
0W
1"
0#
0$
17
08
09
0:
0;
0<
0=
1>
0?
0@
0A
0%
0&
0'
0(
1)
0*
0+
0,
$end
#10000
0"
1#
18
07
0O
1L
0S
1U
1I
0G
1<
0>
0)
1'
#20000
1"
0#
0!
08
17
06
0N
1O
0L
0U
0I
0<
0'
#30000
0"
1#
1!
1$
19
18
07
16
1N
0O
1L
1M
1T
1H
1=
1(
#40000
1"
0#
08
17
1O
0L
1R
0T
0H
1F
0=
1?
1*
0(
#50000
0$
09
0M
0R
1S
1G
0F
1>
0?
0*
1)
#60000
1$
1#
0!
19
18
06
0N
1L
1M
0S
0G
0>
0)
#70000
0#
08
0L
#80000
1#
1!
18
16
1N
1L
1P
1D
1A
1,
#90000
0#
0!
0$
0"
09
08
07
06
0N
0O
0L
0M
0P
0D
0A
0,
#100000
1!
1$
16
19
1M
1N
1V
1J
1;
1&
#120000
1#
1"
18
17
1O
1L
1P
0V
0J
1D
0;
1A
1,
0&
#130000
0#
08
0L
0P
1R
1F
0D
1?
0A
0,
1*
#140000
0!
06
0N
0R
0F
0?
0*
#150000
1!
16
1N
1R
1F
1?
1*
#160000
0$
09
0M
0R
1S
1G
0F
1>
0?
0*
1)
#170000
1$
0!
1#
19
18
06
0N
1L
1M
0S
0G
0>
0)
#180000
1!
0"
16
07
0O
1N
1T
1H
1=
1(
#190000
1"
0#
08
17
1O
0L
1R
0T
0H
1F
0=
1?
1*
0(
#200000
0"
1#
0$
09
18
07
0O
1L
0M
0R
1U
1I
0F
1<
0?
0*
1'
#210000
0!
06
0N
0U
0I
0<
0'
#220000
1"
17
1O
#230000
0"
1!
0#
08
07
16
1N
0O
0L
1W
1K
1:
1%
#250000
0!
1#
06
18
1L
0N
0W
0K
0:
0%
#260000
0#
1"
1$
19
08
17
1O
0L
1M
#270000
1#
0"
0$
1!
09
18
07
16
1N
0O
1L
0M
1U
1I
1<
1'
#280000
0#
1$
19
08
0L
1M
0U
1V
1J
0I
1;
0<
0'
1&
#290000
0$
0!
09
06
0N
0M
0V
0J
0;
0&
#300000
1$
1#
1"
19
18
17
1O
1L
1M
#320000
0$
0#
09
08
0L
0M
#330000
1$
1#
0"
19
18
07
0O
1L
1M
#340000
0$
0#
1!
09
08
16
1N
0L
0M
1W
1K
1:
1%
#360000
1#
18
1L
1U
0W
0K
1I
0:
1<
1'
0%
#370000
0#
1"
08
17
1O
0L
1S
0U
0I
1G
0<
1>
1)
0'
#380000
1#
0"
0!
18
07
06
0N
0O
1L
0S
0G
0>
0)
#390000
0#
1!
1$
19
08
16
1N
0L
1M
1V
1J
1;
1&
#400000
0$
1"
09
17
1O
0M
1S
0V
0J
1G
0;
1>
1)
0&
#410000
1#
0!
18
06
0N
1L
0S
0G
0>
0)
#420000
1$
0"
19
07
0O
1M
#430000
1"
1!
17
16
1N
1O
1P
1D
1A
1,
#440000
0"
07
0O
0P
1T
1H
0D
1=
0A
0,
1(
#450000
0$
09
0M
0T
1U
1I
0H
1<
0=
0(
1'
#460000
1$
1"
19
17
1O
1M
1P
0U
0I
1D
0<
1A
1,
0'
#470000
0"
0#
08
07
0O
0L
0P
1V
1J
0D
1;
0A
0,
1&
#480000
0$
09
0M
0V
1W
1K
0J
1:
0;
0&
1%
#490000
1"
17
1O
1S
0W
0K
1G
0:
1>
1)
0%
#500000
1$
0!
19
06
0N
1M
0S
0G
0>
0)
#510000
0$
0"
09
07
0O
0M
#520000
1"
1!
1#
18
17
16
1N
1O
1L
1Q
1E
1@
1+
#530000
0!
0#
1$
06
19
08
0L
1M
0N
0Q
0E
0@
0+
#540000
0"
07
0O
#550000
1!
16
1N
1V
1J
1;
1&
#560000
0$
09
0M
0V
1W
1K
0J
1:
0;
0&
1%
#570000
1#
18
1L
1U
0W
0K
1I
0:
1<
1'
0%
#580000
1$
0!
19
06
0N
1M
0U
0I
0<
0'
#590000
0$
0#
09
08
0L
0M
#600000
1$
1#
19
18
1L
1M
#610000
1!
16
1N
1T
1H
1=
1(
#620000
0!
0$
1"
06
09
17
1O
0M
0N
0T
0H
0=
0(
#630000
1$
0"
0#
19
08
07
0O
0L
1M
#640000
0$
1"
1!
09
17
16
1N
1O
0M
1S
1G
1>
1)
#650000
1$
0"
0!
19
07
06
0N
0O
1M
0S
0G
0>
0)
#660000
0$
1"
09
17
1O
0M
#670000
1$
0"
1!
1#
19
18
07
16
1N
0O
1L
1M
1T
1H
1=
1(
#680000
0!
0#
06
08
0L
0N
0T
0H
0=
0(
#690000
1!
1#
1"
16
18
17
1O
1L
1N
1P
1D
1A
1,
#700000
0!
0#
0"
0$
06
09
08
07
0O
0L
0M
0N
0P
0D
0A
0,
#710000
1"
17
1O
#720000
1#
1$
19
18
1L
1M
#730000
0"
1!
07
16
1N
0O
1T
1H
1=
1(
#740000
0!
0#
06
08
0L
0N
0T
0H
0=
0(
#750000
1!
1#
1"
0$
16
09
18
17
1O
1L
0M
1N
1Q
1E
1@
1+
#760000
1$
19
1M
1P
0Q
0E
1D
0@
1A
1,
0+
#770000
0"
07
0O
0P
1T
1H
0D
1=
0A
0,
1(
#780000
0!
0#
06
08
0L
0N
0T
0H
0=
0(
#790000
1!
1#
16
18
1L
1N
1T
1H
1=
1(
#800000
0!
0#
1"
0$
06
09
08
17
1O
0L
0M
0N
0T
0H
0=
0(
#810000
1#
0"
1$
19
18
07
0O
1L
1M
#820000
0#
1"
0$
1!
09
08
17
16
1N
1O
0L
0M
1S
1G
1>
1)
#840000
1$
0!
19
06
0N
1M
0S
0G
0>
0)
#850000
0$
0"
09
07
0O
0M
#860000
1$
1!
19
16
1N
1M
1V
1J
1;
1&
#870000
0$
1"
1#
09
18
17
1O
1L
0M
1Q
0V
0J
1E
0;
1@
1+
0&
#880000
0"
0#
08
07
0O
0L
0Q
1W
1K
0E
1:
0@
0+
1%
#890000
1"
17
1O
1S
0W
0K
1G
0:
1>
1)
0%
#900000
0"
07
0O
0S
1W
1K
0G
1:
0>
0)
1%
#910000
1"
1$
19
17
1O
1M
1R
0W
0K
1F
0:
1?
1*
0%
#920000
0$
09
0M
0R
1S
1G
0F
1>
0?
0*
1)
#930000
1$
0"
0!
19
07
06
0N
0O
1M
0S
0G
0>
0)
#940000
1#
18
1L
#950000
1!
16
1N
1T
1H
1=
1(
#960000
0!
0#
1"
06
08
17
1O
0L
0N
0T
0H
0=
0(
#970000
1!
16
1N
1R
1F
1?
1*
#980000
0!
0"
0$
06
09
07
0O
0M
0N
0R
0F
0?
0*
#990000
1$
1#
19
18
1L
1M
