TI-Praktikum-02-2a/simulation/qsim/taktteiler.msim.vcd
$comment
	File created using the following command:
		vcd file taktteiler.msim.vcd -direction
$end
$date
	Sat Dec 03 11:43:28 2022
$end
$version
	ModelSim Version 2020.1
$end
$timescale
	1ps
$end

$scope module taktteiler_vhd_vec_tst $end
$var wire 1 ! clk $end
$var wire 1 " clk_10Hz $end

$scope module i1 $end
$var wire 1 # gnd $end
$var wire 1 $ vcc $end
$var wire 1 % unknown $end
$var wire 1 & devoe $end
$var wire 1 ' devclrn $end
$var wire 1 ( devpor $end
$var wire 1 ) ww_devoe $end
$var wire 1 * ww_devclrn $end
$var wire 1 + ww_devpor $end
$var wire 1 , ww_clk $end
$var wire 1 - ww_clk_10Hz $end
$var wire 1 . \clk~inputclkctrl_INCLK_bus\ [3] $end
$var wire 1 / \clk~inputclkctrl_INCLK_bus\ [2] $end
$var wire 1 0 \clk~inputclkctrl_INCLK_bus\ [1] $end
$var wire 1 1 \clk~inputclkctrl_INCLK_bus\ [0] $end
$var wire 1 2 \~QUARTUS_CREATED_GND~I_combout\ $end
$var wire 1 3 \~QUARTUS_CREATED_UNVM~~busy\ $end
$var wire 1 4 \clk_10Hz~output_o\ $end
$var wire 1 5 \clk~input_o\ $end
$var wire 1 6 \clk~inputclkctrl_outclk\ $end
$var wire 1 7 \Add0~0_combout\ $end
$var wire 1 8 \Add0~1\ $end
$var wire 1 9 \Add0~2_combout\ $end
$var wire 1 : \Add0~3\ $end
$var wire 1 ; \Add0~4_combout\ $end
$var wire 1 < \Add0~5\ $end
$var wire 1 = \Add0~6_combout\ $end
$var wire 1 > \Add0~7\ $end
$var wire 1 ? \Add0~8_combout\ $end
$var wire 1 @ \Equal0~2_combout\ $end
$var wire 1 A \Add0~9\ $end
$var wire 1 B \Add0~10_combout\ $end
$var wire 1 C \Add0~11\ $end
$var wire 1 D \Add0~12_combout\ $end
$var wire 1 E \Add0~13\ $end
$var wire 1 F \Add0~14_combout\ $end
$var wire 1 G \Add0~15\ $end
$var wire 1 H \Add0~16_combout\ $end
$var wire 1 I \counter~2_combout\ $end
$var wire 1 J \Add0~17\ $end
$var wire 1 K \Add0~18_combout\ $end
$var wire 1 L \counter~1_combout\ $end
$var wire 1 M \Add0~19\ $end
$var wire 1 N \Add0~20_combout\ $end
$var wire 1 O \Add0~21\ $end
$var wire 1 P \Add0~22_combout\ $end
$var wire 1 Q \counter~0_combout\ $end
$var wire 1 R \Add0~23\ $end
$var wire 1 S \Add0~24_combout\ $end
$var wire 1 T \Add0~25\ $end
$var wire 1 U \Add0~26_combout\ $end
$var wire 1 V \Add0~27\ $end
$var wire 1 W \Add0~28_combout\ $end
$var wire 1 X \counter~4_combout\ $end
$var wire 1 Y \Add0~29\ $end
$var wire 1 Z \Add0~30_combout\ $end
$var wire 1 [ \Add0~31\ $end
$var wire 1 \ \Add0~32_combout\ $end
$var wire 1 ] \Add0~33\ $end
$var wire 1 ^ \Add0~34_combout\ $end
$var wire 1 _ \Add0~35\ $end
$var wire 1 ` \Add0~36_combout\ $end
$var wire 1 a \counter~5_combout\ $end
$var wire 1 b \Add0~37\ $end
$var wire 1 c \Add0~39\ $end
$var wire 1 d \Add0~40_combout\ $end
$var wire 1 e \Add0~41\ $end
$var wire 1 f \Add0~42_combout\ $end
$var wire 1 g \Add0~43\ $end
$var wire 1 h \Add0~44_combout\ $end
$var wire 1 i \counter~7_combout\ $end
$var wire 1 j \Add0~45\ $end
$var wire 1 k \Add0~46_combout\ $end
$var wire 1 l \Equal0~6_combout\ $end
$var wire 1 m \Add0~38_combout\ $end
$var wire 1 n \counter~6_combout\ $end
$var wire 1 o \Equal0~5_combout\ $end
$var wire 1 p \counter~3_combout\ $end
$var wire 1 q \Equal0~1_combout\ $end
$var wire 1 r \Equal0~0_combout\ $end
$var wire 1 s \Equal0~3_combout\ $end
$var wire 1 t \Equal0~4_combout\ $end
$var wire 1 u \intern_clk~0_combout\ $end
$var wire 1 v \intern_clk~q\ $end
$var wire 1 w counter [23] $end
$var wire 1 x counter [22] $end
$var wire 1 y counter [21] $end
$var wire 1 z counter [20] $end
$var wire 1 { counter [19] $end
$var wire 1 | counter [18] $end
$var wire 1 } counter [17] $end
$var wire 1 ~ counter [16] $end
$var wire 1 !! counter [15] $end
$var wire 1 "! counter [14] $end
$var wire 1 #! counter [13] $end
$var wire 1 $! counter [12] $end
$var wire 1 %! counter [11] $end
$var wire 1 &! counter [10] $end
$var wire 1 '! counter [9] $end
$var wire 1 (! counter [8] $end
$var wire 1 )! counter [7] $end
$var wire 1 *! counter [6] $end
$var wire 1 +! counter [5] $end
$var wire 1 ,! counter [4] $end
$var wire 1 -! counter [3] $end
$var wire 1 .! counter [2] $end
$var wire 1 /! counter [1] $end
$var wire 1 0! counter [0] $end
$upscope $end
$upscope $end
$enddefinitions $end
#0
$dumpvars
0!
0"
0#
1$
x%
1&
1'
1(
1)
1*
1+
0,
0-
02
z3
04
05
06
17
08
09
1:
0;
0<
0=
1>
0?
0@
0A
0B
1C
0D
0E
0F
1G
0H
0I
0J
0K
0L
1M
0N
0O
0P
0Q
1R
0S
0T
0U
1V
0W
0X
0Y
0Z
1[
0\
0]
0^
1_
0`
0a
0b
1c
0d
0e
0f
1g
0h
0i
0j
0k
0l
0m
0n
0o
0p
0q
0r
0s
0t
0u
0v
0w
0x
0y
0z
0{
0|
0}
0~
0!!
0"!
0#!
0$!
0%!
0&!
0'!
0(!
0)!
0*!
0+!
0,!
0-!
0.!
0/!
00!
1.
1/
10
01
$end
#500
1!
1,
15
11
16
10!
07
18
19
#1000
0!
0,
05
01
06
#1500
1!
1,
15
11
16
00!
1/!
09
0:
17
08
19
1:
1;
0;
#2000
0!
0,
05
01
06
#2500
1!
1,
15
11
16
10!
07
18
09
0:
1;
#3000
0!
0,
05
01
06
#3500
1!
1,
15
11
16
00!
0/!
1.!
0;
1<
19
1:
17
08
09
1;
0<
1=
0=
#4000
0!
0,
05
01
06
#4500
1!
1,
15
11
16
10!
07
18
19
#5000
0!
0,
05
01
06
#5500
1!
1,
15
11
16
00!
1/!
09
0:
17
08
19
1:
0;
1<
1=
1;
0<
0=
#6000
0!
0,
05
01
06
#6500
1!
1,
15
11
16
10!
07
18
09
0:
0;
1<
1=
#7000
0!
0,
05
01
06
#7500
1!
1,
15
11
16
00!
0/!
0.!
1-!
0=
0>
1;
0<
19
1:
17
08
09
0;
1=
1>
1?
0?
#8000
0!
0,
05
01
06
#8500
1!
1,
15
11
16
10!
07
18
19
#9000
0!
0,
05
01
06
#9500
1!
1,
15
11
16
00!
1/!
09
0:
17
08
19
1:
1;
0;
#10000
0!
0,
05
01
06
#10500
1!
1,
15
11
16
10!
07
18
09
0:
1;
#11000
0!
0,
05
01
06
#11500
1!
1,
15
11
16
00!
0/!
1.!
0;
1<
19
1:
17
08
09
1;
0<
0=
0>
1?
1=
1>
0?
#12000
0!
0,
05
01
06
#12500
1!
1,
15
11
16
10!
07
18
19
#13000
0!
0,
05
01
06
#13500
1!
1,
15
11
16
00!
1/!
09
0:
17
08
19
1:
0;
1<
0=
0>
1;
0<
1=
1>
1?
0?
#14000
0!
0,
05
01
06
#14500
1!
1,
15
11
16
10!
07
18
09
0:
0;
1<
0=
0>
1?
#15000
0!
0,
05
01
06
#15500
1!
1,
15
11
16
00!
0/!
0.!
0-!
1,!
0?
1A
1=
1>
1;
0<
19
1:
17
08
09
0;
0=
1?
0A
1B
0B
#16000
0!
0,
05
01
06
#16500
1!
1,
15
11
16
10!
07
18
19
#17000
0!
0,
05
01
06
#17500
1!
1,
15
11
16
00!
1/!
09
0:
17
08
19
1:
1;
0;
#18000
0!
0,
05
01
06
#18500
1!
1,
15
11
16
10!
07
18
09
0:
1;
#19000
0!
0,
05
01
06
#19500
1!
1,
15
11
16
00!
0/!
1.!
0;
1<
19
1:
17
08
09
1;
0<
1=
0=
#20000
0!
0,
05
01
06
#20500
1!
1,
15
11
16
10!
07
18
19
#21000
0!
0,
05
01
06
#21500
1!
1,
15
11
16
00!
1/!
09
0:
17
08
19
1:
0;
1<
1=
1;
0<
0=
#22000
0!
0,
05
01
06
#22500
1!
1,
15
11
16
10!
07
18
09
0:
0;
1<
1=
#23000
0!
0,
05
01
06
#23500
1!
1,
15
11
16
00!
0/!
0.!
1-!
0=
0>
1;
0<
19
1:
17
08
09
0;
1=
1>
0?
1A
1B
1?
0A
0B
#24000
0!
0,
05
01
06
#24500
1!
1,
15
11
16
10!
07
18
19
#25000
0!
0,
05
01
06
#25500
1!
1,
15
11
16
00!
1/!
09
0:
17
08
19
1:
1;
0;
#26000
0!
0,
05
01
06
#26500
1!
1,
15
11
16
10!
07
18
09
0:
1;
#27000
0!
0,
05
01
06
#27500
1!
1,
15
11
16
00!
0/!
1.!
0;
1<
19
1:
17
08
09
1;
0<
0=
0>
0?
1A
1=
1>
1?
0A
1B
0B
#28000
0!
0,
05
01
06
#28500
1!
1,
15
11
16
10!
07
18
19
#29000
0!
0,
05
01
06
#29500
1!
1,
15
11
16
00!
1/!
09
0:
1@
17
08
19
1:
0;
1<
0=
0>
1;
0<
1=
1>
0?
1A
1B
1?
0A
0B
#30000
0!
0,
05
01
06
#30500
1!
1,
15
11
16
10!
07
18
09
0:
0;
1<
0=
0>
0?
1A
1B
#31000
0!
0,
05
01
06
#31500
1!
1,
15
11
16
00!
0/!
0.!
0-!
0,!
1+!
0B
0C
1?
0A
1=
1>
1;
0<
19
1:
0@
17
08
09
0;
0=
0?
1B
1C
1D
1p
0D
0p
#32000
0!
0,
05
01
06
#32500
1!
1,
15
11
16
10!
07
18
19
#33000
0!
0,
05
01
06
#33500
1!
1,
15
11
16
00!
1/!
09
0:
17
08
19
1:
1;
0;
#34000
0!
0,
05
01
06
#34500
1!
1,
15
11
16
10!
07
18
09
0:
1;
#35000
0!
0,
05
01
06
#35500
1!
1,
15
11
16
00!
0/!
1.!
0;
1<
19
1:
17
08
09
1;
0<
1=
0=
#36000
0!
0,
05
01
06
#36500
1!
1,
15
11
16
10!
07
18
19
#37000
0!
0,
05
01
06
#37500
1!
1,
15
11
16
00!
1/!
09
0:
17
08
19
1:
0;
1<
1=
1;
0<
0=
#38000
0!
0,
05
01
06
#38500
1!
1,
15
11
16
10!
07
18
09
0:
0;
1<
1=
#39000
0!
0,
05
01
06
#39500
1!
1,
15
11
16
00!
0/!
0.!
1-!
0=
0>
1;
0<
19
1:
17
08
09
0;
1=
1>
1?
0?
#40000
0!
0,
05
01
06
#40500
1!
1,
15
11
16
10!
07
18
19
#41000
0!
0,
05
01
06
#41500
1!
1,
15
11
16
00!
1/!
09
0:
17
08
19
1:
1;
0;
#42000
0!
0,
05
01
06
#42500
1!
1,
15
11
16
10!
07
18
09
0:
1;
#43000
0!
0,
05
01
06
#43500
1!
1,
15
11
16
00!
0/!
1.!
0;
1<
19
1:
17
08
09
1;
0<
0=
0>
1?
1=
1>
0?
#44000
0!
0,
05
01
06
#44500
1!
1,
15
11
16
10!
07
18
19
#45000
0!
0,
05
01
06
#45500
1!
1,
15
11
16
00!
1/!
09
0:
17
08
19
1:
0;
1<
0=
0>
1;
0<
1=
1>
1?
0?
#46000
0!
0,
05
01
06
#46500
1!
1,
15
11
16
10!
07
18
09
0:
0;
1<
0=
0>
1?
#47000
0!
0,
05
01
06
#47500
1!
1,
15
11
16
00!
0/!
0.!
0-!
1,!
0?
1A
1=
1>
1;
0<
19
1:
17
08
09
0;
0=
1?
0A
0B
0C
1D
1B
1C
0D
1p
0p
#48000
0!
0,
05
01
06
#48500
1!
1,
15
11
16
10!
07
18
19
#49000
0!
0,
05
01
06
#49500
1!
1,
15
11
16
00!
1/!
09
0:
17
08
19
1:
1;
0;
#50000
0!
0,
05
01
06
#50500
1!
1,
15
11
16
10!
07
18
09
0:
1;
#51000
0!
0,
05
01
06
#51500
1!
1,
15
11
16
00!
0/!
1.!
0;
1<
19
1:
17
08
09
1;
0<
1=
0=
#52000
0!
0,
05
01
06
#52500
1!
1,
15
11
16
10!
07
18
19
#53000
0!
0,
05
01
06
#53500
1!
1,
15
11
16
00!
1/!
09
0:
17
08
19
1:
0;
1<
1=
1;
0<
0=
#54000
0!
0,
05
01
06
#54500
1!
1,
15
11
16
10!
07
18
09
0:
0;
1<
1=
#55000
0!
0,
05
01
06
#55500
1!
1,
15
11
16
00!
0/!
0.!
1-!
0=
0>
1;
0<
19
1:
17
08
09
0;
1=
1>
0?
1A
0B
0C
1?
0A
1B
1C
1D
1p
0D
0p
#56000
0!
0,
05
01
06
#56500
1!
1,
15
11
16
10!
07
18
19
#57000
0!
0,
05
01
06
#57500
1!
1,
15
11
16
00!
1/!
09
0:
17
08
19
1:
1;
0;
#58000
0!
0,
05
01
06
#58500
1!
1,
15
11
16
10!
07
18
09
0:
1;
#59000
0!
0,
05
01
06
#59500
1!
1,
15
11
16
00!
0/!
1.!
0;
1<
19
1:
17
08
09
1;
0<
0=
0>
0?
1A
1=
1>
1?
0A
0B
0C
1D
1B
1C
0D
1p
0p
#60000
0!
0,
05
01
06
#60500
1!
1,
15
11
16
10!
07
18
19
#61000
0!
0,
05
01
06
#61500
1!
1,
15
11
16
00!
1/!
09
0:
1@
17
08
19
1:
0;
1<
0=
0>
1;
0<
1=
1>
0?
1A
0B
0C
1?
0A
1B
1C
1D
1p
0D
0p
#62000
0!
0,
05
01
06
#62500
1!
1,
15
11
16
10!
07
18
09
0:
0;
1<
0=
0>
0?
1A
0B
0C
1D
1p
#63000
0!
0,
05
01
06
#63500
1!
1,
15
11
16
00!
0/!
0.!
0-!
0,!
0+!
1*!
0D
1E
1B
1C
1?
0A
1=
1>
1;
0<
19
1:
0@
17
08
09
0;
0=
0?
0B
1D
0E
1F
0p
0F
1p
#64000
0!
0,
05
01
06
#64500
1!
1,
15
11
16
10!
07
18
19
#65000
0!
0,
05
01
06
#65500
1!
1,
15
11
16
00!
1/!
09
0:
17
08
19
1:
1;
0;
#66000
0!
0,
05
01
06
#66500
1!
1,
15
11
16
10!
07
18
09
0:
1;
#67000
0!
0,
05
01
06
#67500
1!
1,
15
11
16
00!
0/!
1.!
0;
1<
19
1:
17
08
09
1;
0<
1=
0=
#68000
0!
0,
05
01
06
#68500
1!
1,
15
11
16
10!
07
18
19
#69000
0!
0,
05
01
06
#69500
1!
1,
15
11
16
00!
1/!
09
0:
17
08
19
1:
0;
1<
1=
1;
0<
0=
#70000
0!
0,
05
01
06
#70500
1!
1,
15
11
16
10!
07
18
09
0:
0;
1<
1=
#71000
0!
0,
05
01
06
#71500
1!
1,
15
11
16
00!
0/!
0.!
1-!
0=
0>
1;
0<
19
1:
17
08
09
0;
1=
1>
1?
0?
#72000
0!
0,
05
01
06
#72500
1!
1,
15
11
16
10!
07
18
19
#73000
0!
0,
05
01
06
#73500
1!
1,
15
11
16
00!
1/!
09
0:
17
08
19
1:
1;
0;
#74000
0!
0,
05
01
06
#74500
1!
1,
15
11
16
10!
07
18
09
0:
1;
#75000
0!
0,
05
01
06
#75500
1!
1,
15
11
16
00!
0/!
1.!
0;
1<
19
1:
17
08
09
1;
0<
0=
0>
1?
1=
1>
0?
#76000
0!
0,
05
01
06
#76500
1!
1,
15
11
16
10!
07
18
19
#77000
0!
0,
05
01
06
#77500
1!
1,
15
11
16
00!
1/!
09
0:
17
08
19
1:
0;
1<
0=
0>
1;
0<
1=
1>
1?
0?
#78000
0!
0,
05
01
06
#78500
1!
1,
15
11
16
10!
07
18
09
0:
0;
1<
0=
0>
1?
#79000
0!
0,
05
01
06
#79500
1!
1,
15
11
16
00!
0/!
0.!
0-!
1,!
0?
1A
1=
1>
1;
0<
19
1:
17
08
09
0;
0=
1?
0A
1B
0B
#80000
0!
0,
05
01
06
#80500
1!
1,
15
11
16
10!
07
18
19
#81000
0!
0,
05
01
06
#81500
1!
1,
15
11
16
00!
1/!
09
0:
17
08
19
1:
1;
0;
#82000
0!
0,
05
01
06
#82500
1!
1,
15
11
16
10!
07
18
09
0:
1;
#83000
0!
0,
05
01
06
#83500
1!
1,
15
11
16
00!
0/!
1.!
0;
1<
19
1:
17
08
09
1;
0<
1=
0=
#84000
0!
0,
05
01
06
#84500
1!
1,
15
11
16
10!
07
18
19
#85000
0!
0,
05
01
06
#85500
1!
1,
15
11
16
00!
1/!
09
0:
17
08
19
1:
0;
1<
1=
1;
0<
0=
#86000
0!
0,
05
01
06
#86500
1!
1,
15
11
16
10!
07
18
09
0:
0;
1<
1=
#87000
0!
0,
05
01
06
#87500
1!
1,
15
11
16
00!
0/!
0.!
1-!
0=
0>
1;
0<
19
1:
17
08
09
0;
1=
1>
0?
1A
1B
1?
0A
0B
#88000
0!
0,
05
01
06
#88500
1!
1,
15
11
16
10!
07
18
19
#89000
0!
0,
05
01
06
#89500
1!
1,
15
11
16
00!
1/!
09
0:
17
08
19
1:
1;
0;
#90000
0!
0,
05
01
06
#90500
1!
1,
15
11
16
10!
07
18
09
0:
1;
#91000
0!
0,
05
01
06
#91500
1!
1,
15
11
16
00!
0/!
1.!
0;
1<
19
1:
17
08
09
1;
0<
0=
0>
0?
1A
1=
1>
1?
0A
1B
0B
#92000
0!
0,
05
01
06
#92500
1!
1,
15
11
16
10!
07
18
19
#93000
0!
0,
05
01
06
#93500
1!
1,
15
11
16
00!
1/!
09
0:
1@
17
08
19
1:
0;
1<
0=
0>
1;
0<
1=
1>
0?
1A
1B
1?
0A
0B
#94000
0!
0,
05
01
06
#94500
1!
1,
15
11
16
10!
07
18
09
0:
0;
1<
0=
0>
0?
1A
1B
#95000
0!
0,
05
01
06
#95500
1!
1,
15
11
16
00!
0/!
0.!
0-!
0,!
1+!
0B
0C
1?
0A
1=
1>
1;
0<
19
1:
0@
17
08
09
0;
0=
0?
1B
1C
0D
1E
1F
0p
1D
0E
0F
1p
#96000
0!
0,
05
01
06
#96500
1!
1,
15
11
16
10!
07
18
19
#97000
0!
0,
05
01
06
#97500
1!
1,
15
11
16
00!
1/!
09
0:
17
08
19
1:
1;
0;
#98000
0!
0,
05
01
06
#98500
1!
1,
15
11
16
10!
07
18
09
0:
1;
#99000
0!
0,
05
01
06
#99500
1!
1,
15
11
16
00!
0/!
1.!
0;
1<
19
1:
17
08
09
1;
0<
1=
0=
#100000
0!
0,
05
01
06
#100500
1!
1,
15
11
16
10!
07
18
19
#101000
0!
0,
05
01
06
#101500
1!
1,
15
11
16
00!
1/!
09
0:
17
08
19
1:
0;
1<
1=
1;
0<
0=
#102000
0!
0,
05
01
06
#102500
1!
1,
15
11
16
10!
07
18
09
0:
0;
1<
1=
#103000
0!
0,
05
01
06
#103500
1!
1,
15
11
16
00!
0/!
0.!
1-!
0=
0>
1;
0<
19
1:
17
08
09
0;
1=
1>
1?
0?
#104000
0!
0,
05
01
06
#104500
1!
1,
15
11
16
10!
07
18
19
#105000
0!
0,
05
01
06
#105500
1!
1,
15
11
16
00!
1/!
09
0:
17
08
19
1:
1;
0;
#106000
0!
0,
05
01
06
#106500
1!
1,
15
11
16
10!
07
18
09
0:
1;
#107000
0!
0,
05
01
06
#107500
1!
1,
15
11
16
00!
0/!
1.!
0;
1<
19
1:
17
08
09
1;
0<
0=
0>
1?
1=
1>
0?
#108000
0!
0,
05
01
06
#108500
1!
1,
15
11
16
10!
07
18
19
#109000
0!
0,
05
01
06
#109500
1!
1,
15
11
16
00!
1/!
09
0:
17
08
19
1:
0;
1<
0=
0>
1;
0<
1=
1>
1?
0?
#110000
0!
0,
05
01
06
#110500
1!
1,
15
11
16
10!
07
18
09
0:
0;
1<
0=
0>
1?
#111000
0!
0,
05
01
06
#111500
1!
1,
15
11
16
00!
0/!
0.!
0-!
1,!
0?
1A
1=
1>
1;
0<
19
1:
17
08
09
0;
0=
1?
0A
0B
0C
0D
1E
1B
1C
1D
0E
1F
0p
0F
1p
#112000
0!
0,
05
01
06
#112500
1!
1,
15
11
16
10!
07
18
19
#113000
0!
0,
05
01
06
#113500
1!
1,
15
11
16
00!
1/!
09
0:
17
08
19
1:
1;
0;
#114000
0!
0,
05
01
06
#114500
1!
1,
15
11
16
10!
07
18
09
0:
1;
#115000
0!
0,
05
01
06
#115500
1!
1,
15
11
16
00!
0/!
1.!
0;
1<
19
1:
17
08
09
1;
0<
1=
0=
#116000
0!
0,
05
01
06
#116500
1!
1,
15
11
16
10!
07
18
19
#117000
0!
0,
05
01
06
#117500
1!
1,
15
11
16
00!
1/!
09
0:
17
08
19
1:
0;
1<
1=
1;
0<
0=
#118000
0!
0,
05
01
06
#118500
1!
1,
15
11
16
10!
07
18
09
0:
0;
1<
1=
#119000
0!
0,
05
01
06
#119500
1!
1,
15
11
16
00!
0/!
0.!
1-!
0=
0>
1;
0<
19
1:
17
08
09
0;
1=
1>
0?
1A
0B
0C
1?
0A
1B
1C
0D
1E
1F
0p
1D
0E
0F
1p
#120000
0!
0,
05
01
06
#120500
1!
1,
15
11
16
10!
07
18
19
#121000
0!
0,
05
01
06
#121500
1!
1,
15
11
16
00!
1/!
09
0:
17
08
19
1:
1;
0;
#122000
0!
0,
05
01
06
#122500
1!
1,
15
11
16
10!
07
18
09
0:
1;
#123000
0!
0,
05
01
06
#123500
1!
1,
15
11
16
00!
0/!
1.!
0;
1<
19
1:
17
08
09
1;
0<
0=
0>
0?
1A
1=
1>
1?
0A
0B
0C
0D
1E
1B
1C
1D
0E
1F
0p
0F
1p
#124000
0!
0,
05
01
06
#124500
1!
1,
15
11
16
10!
07
18
19
#125000
0!
0,
05
01
06
#125500
1!
1,
15
11
16
00!
1/!
09
0:
1@
17
08
19
1:
0;
1<
0=
0>
1;
0<
1=
1>
0?
1A
0B
0C
1?
0A
1B
1C
0D
1E
1F
0p
1D
0E
0F
1p
#126000
0!
0,
05
01
06
#126500
1!
1,
15
11
16
10!
07
18
09
0:
0;
1<
0=
0>
0?
1A
0B
0C
0D
1E
1F
0p
#127000
0!
0,
05
01
06
#127500
1!
1,
15
11
16
00!
0/!
0.!
0-!
0,!
0+!
1)!
0*!
1D
0E
0F
0G
1B
1C
1?
0A
1=
1>
1;
0<
19
1:
0@
17
08
09
0;
0=
0?
0B
0D
1H
1F
1G
1p
0H
1I
0p
0I
#128000
0!
0,
05
01
06
#128500
1!
1,
15
11
16
10!
07
18
19
#129000
0!
0,
05
01
06
#129500
1!
1,
15
11
16
00!
1/!
09
0:
17
08
19
1:
1;
0;
#130000
0!
0,
05
01
06
#130500
1!
1,
15
11
16
10!
07
18
09
0:
1;
#131000
0!
0,
05
01
06
#131500
1!
1,
15
11
16
00!
0/!
1.!
0;
1<
19
1:
17
08
09
1;
0<
1=
0=
#132000
0!
0,
05
01
06
#132500
1!
1,
15
11
16
10!
07
18
19
#133000
0!
0,
05
01
06
#133500
1!
1,
15
11
16
00!
1/!
09
0:
17
08
19
1:
0;
1<
1=
1;
0<
0=
#134000
0!
0,
05
01
06
#134500
1!
1,
15
11
16
10!
07
18
09
0:
0;
1<
1=
#135000
0!
0,
05
01
06
#135500
1!
1,
15
11
16
00!
0/!
0.!
1-!
0=
0>
1;
0<
19
1:
17
08
09
0;
1=
1>
1?
0?
#136000
0!
0,
05
01
06
#136500
1!
1,
15
11
16
10!
07
18
19
#137000
0!
0,
05
01
06
#137500
1!
1,
15
11
16
00!
1/!
09
0:
17
08
19
1:
1;
0;
#138000
0!
0,
05
01
06
#138500
1!
1,
15
11
16
10!
07
18
09
0:
1;
#139000
0!
0,
05
01
06
#139500
1!
1,
15
11
16
00!
0/!
1.!
0;
1<
19
1:
17
08
09
1;
0<
0=
0>
1?
1=
1>
0?
#140000
0!
0,
05
01
06
#140500
1!
1,
15
11
16
10!
07
18
19
#141000
0!
0,
05
01
06
#141500
1!
1,
15
11
16
00!
1/!
09
0:
17
08
19
1:
0;
1<
0=
0>
1;
0<
1=
1>
1?
0?
#142000
0!
0,
05
01
06
#142500
1!
1,
15
11
16
10!
07
18
09
0:
0;
1<
0=
0>
1?
#143000
0!
0,
05
01
06
#143500
1!
1,
15
11
16
00!
0/!
0.!
0-!
1,!
0?
1A
1=
1>
1;
0<
19
1:
17
08
09
0;
0=
1?
0A
1B
0B
#144000
0!
0,
05
01
06
#144500
1!
1,
15
11
16
10!
07
18
19
#145000
0!
0,
05
01
06
#145500
1!
1,
15
11
16
00!
1/!
09
0:
17
08
19
1:
1;
0;
#146000
0!
0,
05
01
06
#146500
1!
1,
15
11
16
10!
07
18
09
0:
1;
#147000
0!
0,
05
01
06
#147500
1!
1,
15
11
16
00!
0/!
1.!
0;
1<
19
1:
17
08
09
1;
0<
1=
0=
#148000
0!
0,
05
01
06
#148500
1!
1,
15
11
16
10!
07
18
19
#149000
0!
0,
05
01
06
#149500
1!
1,
15
11
16
00!
1/!
09
0:
17
08
19
1:
0;
1<
1=
1;
0<
0=
#150000
0!
0,
05
01
06
#150500
1!
1,
15
11
16
10!
07
18
09
0:
0;
1<
1=
#151000
0!
0,
05
01
06
#151500
1!
1,
15
11
16
00!
0/!
0.!
1-!
0=
0>
1;
0<
19
1:
17
08
09
0;
1=
1>
0?
1A
1B
1?
0A
0B
#152000
0!
0,
05
01
06
#152500
1!
1,
15
11
16
10!
07
18
19
#153000
0!
0,
05
01
06
#153500
1!
1,
15
11
16
00!
1/!
09
0:
17
08
19
1:
1;
0;
#154000
0!
0,
05
01
06
#154500
1!
1,
15
11
16
10!
07
18
09
0:
1;
#155000
0!
0,
05
01
06
#155500
1!
1,
15
11
16
00!
0/!
1.!
0;
1<
19
1:
17
08
09
1;
0<
0=
0>
0?
1A
1=
1>
1?
0A
1B
0B
#156000
0!
0,
05
01
06
#156500
1!
1,
15
11
16
10!
07
18
19
#157000
0!
0,
05
01
06
#157500
1!
1,
15
11
16
00!
1/!
09
0:
1@
17
08
19
1:
0;
1<
0=
0>
1;
0<
1=
1>
0?
1A
1B
1?
0A
0B
#158000
0!
0,
05
01
06
#158500
1!
1,
15
11
16
10!
07
18
09
0:
0;
1<
0=
0>
0?
1A
1B
#159000
0!
0,
05
01
06
#159500
1!
1,
15
11
16
00!
0/!
0.!
0-!
0,!
1+!
0B
0C
1?
0A
1=
1>
1;
0<
19
1:
0@
17
08
09
0;
0=
0?
1B
1C
1D
1p
0D
0p
#160000
0!
0,
05
01
06
#160500
1!
1,
15
11
16
10!
07
18
19
#161000
0!
0,
05
01
06
#161500
1!
1,
15
11
16
00!
1/!
09
0:
17
08
19
1:
1;
0;
#162000
0!
0,
05
01
06
#162500
1!
1,
15
11
16
10!
07
18
09
0:
1;
#163000
0!
0,
05
01
06
#163500
1!
1,
15
11
16
00!
0/!
1.!
0;
1<
19
1:
17
08
09
1;
0<
1=
0=
#164000
0!
0,
05
01
06
#164500
1!
1,
15
11
16
10!
07
18
19
#165000
0!
0,
05
01
06
#165500
1!
1,
15
11
16
00!
1/!
09
0:
17
08
19
1:
0;
1<
1=
1;
0<
0=
#166000
0!
0,
05
01
06
#166500
1!
1,
15
11
16
10!
07
18
09
0:
0;
1<
1=
#167000
0!
0,
05
01
06
#167500
1!
1,
15
11
16
00!
0/!
0.!
1-!
0=
0>
1;
0<
19
1:
17
08
09
0;
1=
1>
1?
0?
#168000
0!
0,
05
01
06
#168500
1!
1,
15
11
16
10!
07
18
19
#169000
0!
0,
05
01
06
#169500
1!
1,
15
11
16
00!
1/!
09
0:
17
08
19
1:
1;
0;
#170000
0!
0,
05
01
06
#170500
1!
1,
15
11
16
10!
07
18
09
0:
1;
#171000
0!
0,
05
01
06
#171500
1!
1,
15
11
16
00!
0/!
1.!
0;
1<
19
1:
17
08
09
1;
0<
0=
0>
1?
1=
1>
0?
#172000
0!
0,
05
01
06
#172500
1!
1,
15
11
16
10!
07
18
19
#173000
0!
0,
05
01
06
#173500
1!
1,
15
11
16
00!
1/!
09
0:
17
08
19
1:
0;
1<
0=
0>
1;
0<
1=
1>
1?
0?
#174000
0!
0,
05
01
06
#174500
1!
1,
15
11
16
10!
07
18
09
0:
0;
1<
0=
0>
1?
#175000
0!
0,
05
01
06
#175500
1!
1,
15
11
16
00!
0/!
0.!
0-!
1,!
0?
1A
1=
1>
1;
0<
19
1:
17
08
09
0;
0=
1?
0A
0B
0C
1D
1B
1C
0D
1p
0p
#176000
0!
0,
05
01
06
#176500
1!
1,
15
11
16
10!
07
18
19
#177000
0!
0,
05
01
06
#177500
1!
1,
15
11
16
00!
1/!
09
0:
17
08
19
1:
1;
0;
#178000
0!
0,
05
01
06
#178500
1!
1,
15
11
16
10!
07
18
09
0:
1;
#179000
0!
0,
05
01
06
#179500
1!
1,
15
11
16
00!
0/!
1.!
0;
1<
19
1:
17
08
09
1;
0<
1=
0=
#180000
0!
0,
05
01
06
#180500
1!
1,
15
11
16
10!
07
18
19
#181000
0!
0,
05
01
06
#181500
1!
1,
15
11
16
00!
1/!
09
0:
17
08
19
1:
0;
1<
1=
1;
0<
0=
#182000
0!
0,
05
01
06
#182500
1!
1,
15
11
16
10!
07
18
09
0:
0;
1<
1=
#183000
0!
0,
05
01
06
#183500
1!
1,
15
11
16
00!
0/!
0.!
1-!
0=
0>
1;
0<
19
1:
17
08
09
0;
1=
1>
0?
1A
0B
0C
1?
0A
1B
1C
1D
1p
0D
0p
#184000
0!
0,
05
01
06
#184500
1!
1,
15
11
16
10!
07
18
19
#185000
0!
0,
05
01
06
#185500
1!
1,
15
11
16
00!
1/!
09
0:
17
08
19
1:
1;
0;
#186000
0!
0,
05
01
06
#186500
1!
1,
15
11
16
10!
07
18
09
0:
1;
#187000
0!
0,
05
01
06
#187500
1!
1,
15
11
16
00!
0/!
1.!
0;
1<
19
1:
17
08
09
1;
0<
0=
0>
0?
1A
1=
1>
1?
0A
0B
0C
1D
1B
1C
0D
1p
0p
#188000
0!
0,
05
01
06
#188500
1!
1,
15
11
16
10!
07
18
19
