TI-Praktikum-01-1a/simulation/qsim/versuch1a.msim.vcd
$comment
	File created using the following command:
		vcd file versuch1a.msim.vcd -direction
$end
$date
	Tue Nov 01 18:02:17 2022
$end
$version
	ModelSim Version 2020.1
$end
$timescale
	1ps
$end

$scope module versuch1a_vhd_vec_tst $end
$var wire 1 ! x0 $end
$var wire 1 " x1 $end
$var wire 1 # x2 $end
$var wire 1 $ y $end

$scope module i1 $end
$var wire 1 % gnd $end
$var wire 1 & vcc $end
$var wire 1 ' unknown $end
$var wire 1 ( devoe $end
$var wire 1 ) devclrn $end
$var wire 1 * devpor $end
$var wire 1 + ww_devoe $end
$var wire 1 , ww_devclrn $end
$var wire 1 - ww_devpor $end
$var wire 1 . ww_x0 $end
$var wire 1 / ww_x1 $end
$var wire 1 0 ww_x2 $end
$var wire 1 1 ww_y $end
$var wire 1 2 \~QUARTUS_CREATED_GND~I_combout\ $end
$var wire 1 3 \~QUARTUS_CREATED_UNVM~~busy\ $end
$var wire 1 4 \y~output_o\ $end
$var wire 1 5 \x0~input_o\ $end
$var wire 1 6 \x1~input_o\ $end
$var wire 1 7 \x2~input_o\ $end
$var wire 1 8 \y~0_combout\ $end
$upscope $end
$upscope $end
$enddefinitions $end
#0
$dumpvars
0!
0"
0#
0$
0%
1&
x'
1(
1)
1*
1+
1,
1-
0.
0/
00
01
02
z3
04
05
06
07
08
$end
#25000
1!
1.
15
18
14
11
1$
#50000
0!
1"
0.
1/
16
05
08
04
01
0$
#75000
1!
1.
15
#100000
0!
0"
1#
0.
0/
10
17
06
05
18
14
11
1$
#125000
1!
1.
15
#150000
0!
1"
0.
1/
16
05
08
04
01
0$
#175000
1!
1.
15
#200000
0!
0"
0#
0.
0/
00
07
06
05
#225000
1!
1.
15
18
14
11
1$
#250000
0!
1"
0.
1/
16
05
08
04
01
0$
#275000
1!
1.
15
#300000
0!
0"
1#
0.
0/
10
17
06
05
18
14
11
1$
#325000
1!
1.
15
#350000
0!
1"
0.
1/
16
05
08
04
01
0$
#375000
1!
1.
15
#400000
0!
0"
0#
0.
0/
00
07
06
05
#425000
1!
1.
15
18
14
11
1$
#450000
0!
1"
0.
1/
16
05
08
04
01
0$
#475000
1!
1.
15
#500000
0!
0"
1#
0.
0/
10
17
06
05
18
14
11
1$
#525000
1!
1.
15
#550000
0!
1"
0.
1/
16
05
08
04
01
0$
#575000
1!
1.
15
#600000
0!
0"
0#
0.
0/
00
07
06
05
#625000
1!
1.
15
18
14
11
1$
#650000
0!
1"
0.
1/
16
05
08
04
01
0$
#675000
1!
1.
15
#700000
0!
0"
1#
0.
0/
10
17
06
05
18
14
11
1$
#725000
1!
1.
15
#750000
0!
1"
0.
1/
16
05
08
04
01
0$
#775000
1!
1.
15
#800000
0!
0"
0#
0.
0/
00
07
06
05
#825000
1!
1.
15
18
14
11
1$
#850000
0!
1"
0.
1/
16
05
08
04
01
0$
#875000
1!
1.
15
#900000
0!
0"
1#
0.
0/
10
17
06
05
18
14
11
1$
#925000
1!
1.
15
#950000
0!
1"
0.
1/
16
05
08
04
01
0$
#975000
1!
1.
15
