TI-Praktikum-02-2b/simulation/qsim/counter.msim.vcd
$comment
	File created using the following command:
		vcd file counter.msim.vcd -direction
$end
$date
	Sun Dec 04 00:37:08 2022
$end
$version
	ModelSim Version 2020.1
$end
$timescale
	1ps
$end

$scope module counter_vhd_vec_tst $end
$var wire 1 ! clk $end
$var wire 1 " cnt_enable $end
$var wire 1 # cnt_rd $end
$var wire 1 $ cnt_val_act [3] $end
$var wire 1 % cnt_val_act [2] $end
$var wire 1 & cnt_val_act [1] $end
$var wire 1 ' cnt_val_act [0] $end
$var wire 1 ( cnt_val_stored_out [3] $end
$var wire 1 ) cnt_val_stored_out [2] $end
$var wire 1 * cnt_val_stored_out [1] $end
$var wire 1 + cnt_val_stored_out [0] $end
$var wire 1 , ofl_rd $end
$var wire 1 - reset_n $end
$var wire 1 . switches [3] $end
$var wire 1 / switches [2] $end
$var wire 1 0 switches [1] $end
$var wire 1 1 switches [0] $end

$scope module i1 $end
$var wire 1 2 gnd $end
$var wire 1 3 vcc $end
$var wire 1 4 unknown $end
$var wire 1 5 devoe $end
$var wire 1 6 devclrn $end
$var wire 1 7 devpor $end
$var wire 1 8 ww_devoe $end
$var wire 1 9 ww_devclrn $end
$var wire 1 : ww_devpor $end
$var wire 1 ; ww_reset_n $end
$var wire 1 < ww_clk $end
$var wire 1 = ww_switches [3] $end
$var wire 1 > ww_switches [2] $end
$var wire 1 ? ww_switches [1] $end
$var wire 1 @ ww_switches [0] $end
$var wire 1 A ww_cnt_enable $end
$var wire 1 B ww_ofl_rd $end
$var wire 1 C ww_cnt_rd $end
$var wire 1 D ww_cnt_val_act [3] $end
$var wire 1 E ww_cnt_val_act [2] $end
$var wire 1 F ww_cnt_val_act [1] $end
$var wire 1 G ww_cnt_val_act [0] $end
$var wire 1 H ww_cnt_val_stored_out [3] $end
$var wire 1 I ww_cnt_val_stored_out [2] $end
$var wire 1 J ww_cnt_val_stored_out [1] $end
$var wire 1 K ww_cnt_val_stored_out [0] $end
$var wire 1 L \clk~inputclkctrl_INCLK_bus\ [3] $end
$var wire 1 M \clk~inputclkctrl_INCLK_bus\ [2] $end
$var wire 1 N \clk~inputclkctrl_INCLK_bus\ [1] $end
$var wire 1 O \clk~inputclkctrl_INCLK_bus\ [0] $end
$var wire 1 P \~QUARTUS_CREATED_GND~I_combout\ $end
$var wire 1 Q \~QUARTUS_CREATED_UNVM~~busy\ $end
$var wire 1 R \cnt_val_act[0]~output_o\ $end
$var wire 1 S \cnt_val_act[1]~output_o\ $end
$var wire 1 T \cnt_val_act[2]~output_o\ $end
$var wire 1 U \cnt_val_act[3]~output_o\ $end
$var wire 1 V \cnt_val_stored_out[0]~output_o\ $end
$var wire 1 W \cnt_val_stored_out[1]~output_o\ $end
$var wire 1 X \cnt_val_stored_out[2]~output_o\ $end
$var wire 1 Y \cnt_val_stored_out[3]~output_o\ $end
$var wire 1 Z \clk~input_o\ $end
$var wire 1 [ \clk~inputclkctrl_outclk\ $end
$var wire 1 \ \switches[0]~input_o\ $end
$var wire 1 ] \ofl_val[0]~1_combout\ $end
$var wire 1 ^ \reset_n~input_o\ $end
$var wire 1 _ \ofl_rd~input_o\ $end
$var wire 1 ` \ofl_val[3]~0_combout\ $end
$var wire 1 a \Add0~1_combout\ $end
$var wire 1 b \switches[2]~input_o\ $end
$var wire 1 c \ofl_val[2]~3_combout\ $end
$var wire 1 d \switches[3]~input_o\ $end
$var wire 1 e \ofl_val[3]~4_combout\ $end
$var wire 1 f \LessThan0~1_combout\ $end
$var wire 1 g \intern_counter_ofl~2_combout\ $end
$var wire 1 h \cnt_enable~input_o\ $end
$var wire 1 i \Add0~2_combout\ $end
$var wire 1 j \intern_counter_ofl~3_combout\ $end
$var wire 1 k \LessThan0~2_combout\ $end
$var wire 1 l \Add0~0_combout\ $end
$var wire 1 m \intern_counter_ofl~1_combout\ $end
$var wire 1 n \switches[1]~input_o\ $end
$var wire 1 o \ofl_val[1]~2_combout\ $end
$var wire 1 p \LessThan0~0_combout\ $end
$var wire 1 q \intern_counter_ofl~0_combout\ $end
$var wire 1 r \intern_counter_async[0]~feeder_combout\ $end
$var wire 1 s \cnt_rd~input_o\ $end
$var wire 1 t \intern_counter_async[0]~0_combout\ $end
$var wire 1 u \intern_counter_async[1]~feeder_combout\ $end
$var wire 1 v \intern_counter_async[2]~feeder_combout\ $end
$var wire 1 w \intern_counter_async[3]~feeder_combout\ $end
$var wire 1 x intern_counter_ofl [3] $end
$var wire 1 y intern_counter_ofl [2] $end
$var wire 1 z intern_counter_ofl [1] $end
$var wire 1 { intern_counter_ofl [0] $end
$var wire 1 | intern_counter_async [3] $end
$var wire 1 } intern_counter_async [2] $end
$var wire 1 ~ intern_counter_async [1] $end
$var wire 1 !! intern_counter_async [0] $end
$var wire 1 "! ofl_val [3] $end
$var wire 1 #! ofl_val [2] $end
$var wire 1 $! ofl_val [1] $end
$var wire 1 %! ofl_val [0] $end
$var wire 1 &! \ALT_INV_reset_n~input_o\ $end
$upscope $end
$upscope $end
$enddefinitions $end
#0
$dumpvars
0!
1"
1#
1,
1-
02
13
x4
15
16
17
18
19
1:
1;
0<
1A
1B
1C
0P
zQ
0R
0S
0T
0U
0V
0W
0X
0Y
0Z
0[
0\
1]
1^
1_
0`
0a
1b
0c
0d
1e
0f
0g
1h
0i
0j
1k
0l
0m
0n
1o
1p
1q
0r
1s
0t
0u
0v
0w
0&!
0.
1/
00
01
0=
1>
0?
0@
0D
0E
0F
0G
0H
0I
0J
0K
0x
0y
0z
0{
0|
0}
0~
0!!
0"!
0#!
0$!
0%!
1L
1M
1N
0O
0$
0%
0&
0'
0(
0)
0*
0+
$end
#5000
1!
1<
1Z
1O
1[
#10000
0!
0<
0Z
0O
0[
#15000
1!
1<
1Z
1O
1[
#20000
0!
0<
0Z
0O
0[
#25000
1!
1<
1Z
1O
1[
#30000
0!
0<
0Z
0O
0[
#35000
1!
1<
1Z
1O
1[
#40000
0!
0<
0Z
0O
0[
#45000
1!
1<
1Z
1O
1[
#50000
0!
0<
0Z
0O
0[
#55000
1!
1<
1Z
1O
1[
#60000
0!
0<
0Z
0O
0[
#65000
1!
1<
1Z
1O
1[
#70000
0!
0<
0Z
0O
0[
#75000
1!
1<
1Z
1O
1[
#80000
0!
0<
0Z
0O
0[
#85000
1!
1<
1Z
1O
1[
#90000
0!
0<
0Z
0O
0[
#95000
1!
1<
1Z
1O
1[
#100000
0!
0<
0Z
0O
0[
#105000
1!
1<
1Z
1O
1[
#110000
0!
0<
0Z
0O
0[
#115000
1!
1<
1Z
1O
1[
#120000
0!
0<
0Z
0O
0[
#125000
1!
1<
1Z
1O
1[
#130000
0!
0<
0Z
0O
0[
#135000
1!
1<
1Z
1O
1[
#140000
0!
0<
0Z
0O
0[
#145000
1!
1<
1Z
1O
1[
#150000
0!
0<
0Z
0O
0[
#155000
1!
1<
1Z
1O
1[
#160000
0!
0<
0Z
0O
0[
#165000
1!
1<
1Z
1O
1[
#170000
0!
0<
0Z
0O
0[
#175000
1!
1<
1Z
1O
1[
#180000
0!
0<
0Z
0O
0[
#185000
1!
1<
1Z
1O
1[
#190000
0!
0<
0Z
0O
0[
#195000
1!
1<
1Z
1O
1[
#200000
0!
0<
0Z
0O
0[
#205000
1!
1<
1Z
1O
1[
#210000
0!
0<
0Z
0O
0[
#215000
1!
1<
1Z
1O
1[
#220000
0!
0<
0Z
0O
0[
#225000
1!
1<
1Z
1O
1[
#230000
0!
0<
0Z
0O
0[
#235000
1!
1<
1Z
1O
1[
#240000
0!
0<
0Z
0O
0[
#245000
1!
1<
1Z
1O
1[
#250000
0!
0<
0Z
0O
0[
#255000
1!
1<
1Z
1O
1[
#260000
0!
0<
0Z
0O
0[
#265000
1!
1<
1Z
1O
1[
#270000
0!
0<
0Z
0O
0[
#275000
1!
1<
1Z
1O
1[
#280000
0!
0<
0Z
0O
0[
#285000
1!
1<
1Z
1O
1[
#290000
0!
0<
0Z
0O
0[
#295000
1!
1<
1Z
1O
1[
#300000
0!
0<
0Z
0O
0[
#305000
1!
1<
1Z
1O
1[
#310000
0!
0<
0Z
0O
0[
#315000
1!
1<
1Z
1O
1[
#320000
0!
0<
0Z
0O
0[
#325000
1!
1<
1Z
1O
1[
#330000
0!
0<
0Z
0O
0[
#335000
1!
1<
1Z
1O
1[
#340000
0!
0<
0Z
0O
0[
#345000
1!
1<
1Z
1O
1[
#350000
0!
0<
0Z
0O
0[
#355000
1!
1<
1Z
1O
1[
#360000
0!
0<
0Z
0O
0[
#365000
1!
1<
1Z
1O
1[
#370000
0!
0<
0Z
0O
0[
#375000
1!
1<
1Z
1O
1[
#380000
0!
0<
0Z
0O
0[
#385000
1!
1<
1Z
1O
1[
#390000
0!
0<
0Z
0O
0[
#395000
1!
1<
1Z
1O
1[
#400000
0!
0<
0Z
0O
0[
#405000
1!
1<
1Z
1O
1[
#410000
0!
0<
0Z
0O
0[
#415000
1!
1<
1Z
1O
1[
#420000
0!
0<
0Z
0O
0[
#425000
1!
1<
1Z
1O
1[
#430000
0!
0<
0Z
0O
0[
#435000
1!
1<
1Z
1O
1[
#440000
0!
0<
0Z
0O
0[
#445000
1!
1<
1Z
1O
1[
#450000
0!
0<
0Z
0O
0[
#455000
1!
1<
1Z
1O
1[
#460000
0!
0<
0Z
0O
0[
#465000
1!
1<
1Z
1O
1[
#470000
0!
0<
0Z
0O
0[
#475000
1!
1<
1Z
1O
1[
#480000
0!
0<
0Z
0O
0[
#485000
1!
1<
1Z
1O
1[
#490000
0!
0<
0Z
0O
0[
#495000
1!
1<
1Z
1O
1[
#500000
0!
0<
0Z
0O
0[
#505000
1!
1<
1Z
1O
1[
#510000
0!
0<
0Z
0O
0[
#515000
1!
1<
1Z
1O
1[
#520000
0!
0<
0Z
0O
0[
#525000
1!
1<
1Z
1O
1[
#530000
0!
0<
0Z
0O
0[
#535000
1!
1<
1Z
1O
1[
#540000
0!
0<
0Z
0O
0[
#545000
1!
1<
1Z
1O
1[
#550000
0!
0<
0Z
0O
0[
#555000
1!
1<
1Z
1O
1[
#560000
0!
0<
0Z
0O
0[
#565000
1!
1<
1Z
1O
1[
#570000
0!
0<
0Z
0O
0[
#575000
1!
1<
1Z
1O
1[
#580000
0!
0<
0Z
0O
0[
#585000
1!
1<
1Z
1O
1[
#590000
0!
0<
0Z
0O
0[
#595000
1!
1<
1Z
1O
1[
#600000
0!
0<
0Z
0O
0[
#605000
1!
1<
1Z
1O
1[
#610000
0!
0<
0Z
0O
0[
#615000
1!
1<
1Z
1O
1[
#620000
0!
0<
0Z
0O
0[
#625000
1!
1<
1Z
1O
1[
#630000
0!
0<
0Z
0O
0[
#635000
1!
1<
1Z
1O
1[
#640000
0!
0<
0Z
0O
0[
#645000
1!
1<
1Z
1O
1[
#650000
0!
0<
0Z
0O
0[
#655000
1!
1<
1Z
1O
1[
#660000
0!
0<
0Z
0O
0[
#665000
1!
1<
1Z
1O
1[
#670000
0!
0<
0Z
0O
0[
#675000
1!
1<
1Z
1O
1[
#680000
0!
0<
0Z
0O
0[
#685000
1!
1<
1Z
1O
1[
#690000
0!
0<
0Z
0O
0[
#695000
1!
1<
1Z
1O
1[
#700000
0!
0<
0Z
0O
0[
#705000
1!
1<
1Z
1O
1[
#710000
0!
0<
0Z
0O
0[
#715000
1!
1<
1Z
1O
1[
#720000
0!
0<
0Z
0O
0[
#725000
1!
1<
1Z
1O
1[
#730000
0!
0<
0Z
0O
0[
#735000
1!
1<
1Z
1O
1[
#740000
0!
0<
0Z
0O
0[
#745000
1!
1<
1Z
1O
1[
#750000
0!
0<
0Z
0O
0[
#755000
1!
1<
1Z
1O
1[
#760000
0!
0<
0Z
0O
0[
#765000
1!
1<
1Z
1O
1[
#770000
0!
0<
0Z
0O
0[
#775000
1!
1<
1Z
1O
1[
#780000
0!
0<
0Z
0O
0[
#785000
1!
1<
1Z
1O
1[
#790000
0!
0<
0Z
0O
0[
#795000
1!
1<
1Z
1O
1[
#800000
0!
0<
0Z
0O
0[
#805000
1!
1<
1Z
1O
1[
#810000
0!
0<
0Z
0O
0[
#815000
1!
1<
1Z
1O
1[
#820000
0!
0<
0Z
0O
0[
#825000
1!
1<
1Z
1O
1[
#830000
0!
0<
0Z
0O
0[
#835000
1!
1<
1Z
1O
1[
#840000
0!
0<
0Z
0O
0[
#845000
1!
1<
1Z
1O
1[
#850000
0!
0<
0Z
0O
0[
#855000
1!
1<
1Z
1O
1[
#860000
0!
0<
0Z
0O
0[
#865000
1!
1<
1Z
1O
1[
#870000
0!
0<
0Z
0O
0[
#875000
1!
1<
1Z
1O
1[
#880000
0!
0<
0Z
0O
0[
#885000
1!
1<
1Z
1O
1[
#890000
0!
0<
0Z
0O
0[
#895000
1!
1<
1Z
1O
1[
#900000
0!
0<
0Z
0O
0[
#905000
1!
1<
1Z
1O
1[
#910000
0!
0<
0Z
0O
0[
#915000
1!
1<
1Z
1O
1[
#920000
0!
0<
0Z
0O
0[
#925000
1!
1<
1Z
1O
1[
#930000
0!
0<
0Z
0O
0[
#935000
1!
1<
1Z
1O
1[
#940000
0!
0<
0Z
0O
0[
#945000
1!
1<
1Z
1O
1[
#950000
0!
0<
0Z
0O
0[
#955000
1!
1<
1Z
1O
1[
#960000
0!
0<
0Z
0O
0[
#965000
1!
1<
1Z
1O
1[
#970000
0!
0<
0Z
0O
0[
#975000
1!
1<
1Z
1O
1[
#980000
0!
0<
0Z
0O
0[
#985000
1!
1<
1Z
1O
1[
#990000
0!
0<
0Z
0O
0[
#995000
1!
1<
1Z
1O
1[
