TI-Praktikum-02-Steckboard-2g/simulation/qsim/Schaltkreis.msim.vcd
$comment
	File created using the following command:
		vcd file Schaltkreis.msim.vcd -direction
$end
$date
	Mon Nov 21 14:12:08 2022
$end
$version
	ModelSim Version 2020.1
$end
$timescale
	1ps
$end

$scope module Schaltkreis_vlg_vec_tst $end
$var reg 1 ! CLCK $end
$var reg 1 " G $end
$var reg 1 # RESET $end
$var reg 1 $ SET $end
$var wire 1 % CYCLE $end
$var wire 1 & q0 $end
$var wire 1 ' q1 $end
$var wire 1 ( q2 $end

$scope module i1 $end
$var wire 1 ) gnd $end
$var wire 1 * vcc $end
$var wire 1 + unknown $end
$var tri1 1 , devclrn $end
$var tri1 1 - devpor $end
$var tri1 1 . devoe $end
$var wire 1 / ~QUARTUS_CREATED_GND~I_combout $end
$var wire 1 0 ~QUARTUS_CREATED_UNVM~~busy $end
$var wire 1 1 q0~output_o $end
$var wire 1 2 q1~output_o $end
$var wire 1 3 q2~output_o $end
$var wire 1 4 CYCLE~output_o $end
$var wire 1 5 CLCK~input_o $end
$var wire 1 6 G~input_o $end
$var wire 1 7 SET~input_o $end
$var wire 1 8 RESET~input_o $end
$var wire 1 9 JKFF-A~1_combout $end
$var wire 1 : JKFF-A~3_combout $end
$var wire 1 ; JKFF-A~0_combout $end
$var wire 1 < JKFF-A~_emulated_q $end
$var wire 1 = JKFF-A~2_combout $end
$var wire 1 > JKFF-B~0_combout $end
$var wire 1 ? JKFF-B~q $end
$var wire 1 @ JKFF-C~0_combout $end
$var wire 1 A JKFF-C~q $end
$var wire 1 B inst11~combout $end
$upscope $end
$upscope $end
$enddefinitions $end
#0
$dumpvars
0!
1"
0#
1$
1%
0&
0'
0(
0)
1*
x+
1,
1-
1.
0/
z0
01
02
03
14
05
16
17
08
09
0:
1;
0<
0=
1>
0?
0@
0A
0B
$end
#5000
1!
15
1?
12
1B
1'
1@
0>
04
0%
#10000
0!
05
#15000
1!
15
1A
0?
02
11
1&
0'
1>
#20000
0!
05
#25000
1!
15
1?
12
1'
0@
0>
#30000
0!
05
#35000
1!
15
0A
0?
02
01
0B
0&
0'
1>
14
1%
#40000
1#
0!
18
05
0;
#45000
1!
15
1?
12
1B
1'
1@
0>
04
0%
#50000
0!
05
#55000
1!
15
1A
0?
02
11
1&
0'
1>
#60000
0!
05
#65000
1!
15
1?
12
1'
0@
0>
#70000
0!
05
#75000
1!
15
0A
0?
02
01
0B
0&
0'
1>
14
1%
#80000
0!
05
#85000
1!
15
1?
12
1B
1'
1@
0>
04
0%
#90000
0!
05
#95000
1!
15
1A
0?
02
11
1&
0'
1>
#100000
0!
05
#105000
1!
15
1?
12
1'
0@
0>
#110000
0!
05
#115000
1!
15
0A
0?
02
01
0B
0&
0'
1>
14
1%
#120000
0!
05
#125000
1!
15
1?
12
1B
1'
1@
0>
04
0%
#130000
0!
05
#135000
1!
15
1A
0?
02
11
1&
0'
1>
#140000
0!
05
#145000
1!
15
1?
12
1'
0@
0>
#150000
0!
05
#155000
1!
15
0A
0?
02
01
0B
0&
0'
1>
14
1%
#160000
0!
05
#165000
1!
15
1?
12
1B
1'
1@
0>
04
0%
#170000
0!
05
#175000
1!
15
1A
0?
02
11
1&
0'
1>
#180000
0!
05
#185000
1!
15
1?
12
1'
0@
0>
#190000
0"
0!
06
05
1:
1@
1>
#195000
1!
15
1<
1=
13
1(
0@
0>
#200000
0!
05
#205000
1!
15
0A
0?
02
01
0B
0&
0'
1>
14
1%
#210000
0!
05
#215000
1!
15
1?
12
1B
1'
1@
0>
04
0%
#220000
0!
05
#225000
1!
15
1A
0?
02
11
1&
0'
1>
#230000
0!
05
#235000
1!
15
1?
12
1'
0@
0>
#240000
0!
05
#245000
1!
15
0A
0?
02
01
0B
0&
0'
1>
14
1%
#250000
0!
05
#255000
1!
15
1?
12
1B
1'
1@
0>
04
0%
#260000
0!
05
#265000
1!
15
1A
0?
02
11
1&
0'
1>
#270000
0!
05
#275000
1!
15
1?
12
1'
0@
0>
#280000
0!
05
#285000
1!
15
0A
0?
02
01
0B
0&
0'
1>
14
1%
#290000
0!
05
#295000
1!
15
1?
12
1B
1'
1@
0>
04
0%
#300000
0!
05
#305000
1!
15
1A
0?
02
11
1&
0'
1>
#310000
0!
05
#315000
1!
15
1?
12
1'
0@
0>
#320000
0!
05
#325000
1!
15
0A
0?
02
01
0B
0&
0'
1>
14
1%
#330000
0!
05
#335000
1!
15
1?
12
1B
1'
1@
0>
04
0%
#340000
0!
05
#345000
1!
15
1A
0?
02
11
1&
0'
1>
#350000
0!
05
#355000
1!
15
1?
12
1'
0@
0>
#360000
0!
05
#365000
1!
15
0A
0?
02
01
0B
0&
0'
1>
14
1%
#370000
0!
05
#375000
1!
15
1?
12
1B
1'
1@
0>
04
0%
#380000
1"
0!
16
05
0:
#385000
1!
15
0<
1A
0?
02
11
1&
0'
0=
1>
03
0(
#390000
0!
05
#395000
1!
15
1?
12
1'
0@
0>
#400000
0!
05
#405000
1!
15
0A
0?
02
01
0B
0&
0'
1>
14
1%
#410000
0!
05
#415000
1!
15
1?
12
1B
1'
1@
0>
04
0%
#420000
0!
05
#425000
1!
15
1A
0?
02
11
1&
0'
1>
#430000
0!
05
#435000
1!
15
1?
12
1'
0@
0>
#440000
0!
05
#445000
1!
15
0A
0?
02
01
0B
0&
0'
1>
14
1%
#450000
0!
05
#455000
1!
15
1?
12
1B
1'
1@
0>
04
0%
#460000
0!
05
#465000
1!
15
1A
0?
02
11
1&
0'
1>
#470000
0!
05
#475000
1!
15
1?
12
1'
0@
0>
#480000
0!
05
#485000
1!
15
0A
0?
02
01
0B
0&
0'
1>
14
1%
#490000
0!
05
#495000
1!
15
1?
12
1B
1'
1@
0>
04
0%
#500000
0!
05
#505000
1!
15
1A
0?
02
11
1&
0'
1>
#510000
0!
05
#515000
1!
15
1?
12
1'
0@
0>
#520000
0!
05
#525000
1!
15
0A
0?
02
01
0B
0&
0'
1>
14
1%
#530000
0!
05
#535000
1!
15
1?
12
1B
1'
1@
0>
04
0%
#540000
0#
0!
08
05
1;
#545000
1!
15
1A
0?
02
11
1&
0'
1>
#550000
0!
05
#555000
1!
15
1?
12
1'
0@
0>
#560000
0!
05
#565000
1!
15
0A
0?
02
01
0B
0&
0'
1>
14
1%
#570000
0"
0!
06
05
1:
0>
#575000
1!
15
#580000
0!
05
#585000
1!
15
#590000
0!
05
#595000
1!
15
#600000
0!
05
#605000
1!
15
#610000
0!
05
#615000
1!
15
#620000
0!
05
#625000
1!
15
#630000
0!
05
#635000
1!
15
#640000
0!
05
#645000
1!
15
#650000
0!
05
#655000
1!
15
#660000
0!
05
#665000
1!
15
#670000
0!
05
#675000
1!
15
#680000
0!
05
#685000
1!
15
#690000
0!
05
#695000
1!
15
#700000
0!
05
#705000
1!
15
#710000
0!
05
#715000
1!
15
#720000
0!
05
#725000
1!
15
#730000
0!
05
#735000
1!
15
#740000
0!
05
#745000
1!
15
#750000
0!
05
#755000
1!
15
#760000
1"
0!
16
05
0:
1>
#765000
1!
15
1?
12
1B
1'
1@
0>
04
0%
#770000
0!
05
#775000
1!
15
1A
0?
02
11
1&
0'
1>
#780000
0!
05
#785000
1!
15
1?
12
1'
0@
0>
#790000
0!
05
#795000
1!
15
0A
0?
02
01
0B
0&
0'
1>
14
1%
#800000
0!
05
#805000
1!
15
1?
12
1B
1'
1@
0>
04
0%
#810000
0!
05
#815000
1!
15
1A
0?
02
11
1&
0'
1>
#820000
0!
05
#825000
1!
15
1?
12
1'
0@
0>
#830000
0!
05
#835000
1!
15
0A
0?
02
01
0B
0&
0'
1>
14
1%
#840000
0!
05
#845000
1!
15
1?
12
1B
1'
1@
0>
04
0%
#850000
0!
05
#855000
1!
15
1A
0?
02
11
1&
0'
1>
#860000
0!
05
#865000
1!
15
1?
12
1'
0@
0>
#870000
0!
05
#875000
1!
15
0A
0?
02
01
0B
0&
0'
1>
14
1%
#880000
0!
05
#885000
1!
15
1?
12
1B
1'
1@
0>
04
0%
#890000
0!
05
#895000
1!
15
1A
0?
02
11
1&
0'
1>
#900000
0!
05
#905000
1!
15
1?
12
1'
0@
0>
#910000
0!
05
#915000
1!
15
0A
0?
02
01
0B
0&
0'
1>
14
1%
#920000
0!
05
#925000
1!
15
1?
12
1B
1'
1@
0>
04
0%
#930000
0!
05
#935000
1!
15
1A
0?
02
11
1&
0'
1>
#940000
0!
05
#945000
1!
15
1?
12
1'
0@
0>
#950000
0"
0!
06
05
1:
1@
1>
#955000
1!
15
#960000
0!
05
#965000
1!
15
#970000
0!
05
#975000
1!
15
#980000
0!
05
#985000
1!
15
#990000
0!
05
#995000
1!
15
