TI-Praktikum-03-3a/simulation/qsim/akkumulator.msim.vcd
$comment
	File created using the following command:
		vcd file akkumulator.msim.vcd -direction
$end
$date
	Thu Dec 15 18:40:14 2022
$end
$version
	ModelSim Version 2020.1
$end
$timescale
	1ps
$end

$scope module akkumulator_vhd_vec_tst $end
$var wire 1 ! c $end
$var wire 1 " clk $end
$var wire 1 # d [3] $end
$var wire 1 $ d [2] $end
$var wire 1 % d [1] $end
$var wire 1 & d [0] $end
$var wire 1 ' e $end
$var wire 1 ( ld $end
$var wire 1 ) q [3] $end
$var wire 1 * q [2] $end
$var wire 1 + q [1] $end
$var wire 1 , q [0] $end
$var wire 1 - sub $end

$scope module i1 $end
$var wire 1 . gnd $end
$var wire 1 / vcc $end
$var wire 1 0 unknown $end
$var wire 1 1 devoe $end
$var wire 1 2 devclrn $end
$var wire 1 3 devpor $end
$var wire 1 4 ww_devoe $end
$var wire 1 5 ww_devclrn $end
$var wire 1 6 ww_devpor $end
$var wire 1 7 ww_d [3] $end
$var wire 1 8 ww_d [2] $end
$var wire 1 9 ww_d [1] $end
$var wire 1 : ww_d [0] $end
$var wire 1 ; ww_ld $end
$var wire 1 < ww_sub $end
$var wire 1 = ww_e $end
$var wire 1 > ww_clk $end
$var wire 1 ? ww_c $end
$var wire 1 @ ww_q [3] $end
$var wire 1 A ww_q [2] $end
$var wire 1 B ww_q [1] $end
$var wire 1 C ww_q [0] $end
$var wire 1 D \clk~inputclkctrl_INCLK_bus\ [3] $end
$var wire 1 E \clk~inputclkctrl_INCLK_bus\ [2] $end
$var wire 1 F \clk~inputclkctrl_INCLK_bus\ [1] $end
$var wire 1 G \clk~inputclkctrl_INCLK_bus\ [0] $end
$var wire 1 H \~QUARTUS_CREATED_GND~I_combout\ $end
$var wire 1 I \~QUARTUS_CREATED_UNVM~~busy\ $end
$var wire 1 J \c~output_o\ $end
$var wire 1 K \q[0]~output_o\ $end
$var wire 1 L \q[1]~output_o\ $end
$var wire 1 M \q[2]~output_o\ $end
$var wire 1 N \q[3]~output_o\ $end
$var wire 1 O \clk~input_o\ $end
$var wire 1 P \clk~inputclkctrl_outclk\ $end
$var wire 1 Q \ld~input_o\ $end
$var wire 1 R \e~input_o\ $end
$var wire 1 S \d[0]~input_o\ $end
$var wire 1 T \sub~input_o\ $end
$var wire 1 U \Add0~0_combout\ $end
$var wire 1 V \Add0~2_cout\ $end
$var wire 1 W \Add0~3_combout\ $end
$var wire 1 X \Add0~5_combout\ $end
$var wire 1 Y \d[1]~input_o\ $end
$var wire 1 Z \Add0~6_combout\ $end
$var wire 1 [ \Add0~4\ $end
$var wire 1 \ \Add0~7_combout\ $end
$var wire 1 ] \Add0~9_combout\ $end
$var wire 1 ^ \d[2]~input_o\ $end
$var wire 1 _ \Add0~10_combout\ $end
$var wire 1 ` \Add0~8\ $end
$var wire 1 a \Add0~11_combout\ $end
$var wire 1 b \Add0~13_combout\ $end
$var wire 1 c \d[3]~input_o\ $end
$var wire 1 d \Add0~14_combout\ $end
$var wire 1 e \Add0~12\ $end
$var wire 1 f \Add0~15_combout\ $end
$var wire 1 g \Add0~17_combout\ $end
$var wire 1 h cr [4] $end
$var wire 1 i cr [3] $end
$var wire 1 j cr [2] $end
$var wire 1 k cr [1] $end
$var wire 1 l cr [0] $end
$var wire 1 m \ALT_INV_e~input_o\ $end
$upscope $end
$upscope $end
$enddefinitions $end
#0
$dumpvars
0!
0"
0'
0(
0-
0.
1/
x0
11
12
13
14
15
16
0;
0<
0=
0>
0?
0H
zI
0J
0K
0L
0M
0N
0O
0P
0Q
0R
1S
0T
1U
0V
1W
1X
0Y
0Z
1[
0\
0]
0^
0_
0`
0a
0b
0c
0d
1e
0f
0g
1m
0#
0$
0%
1&
07
08
09
1:
0@
0A
0B
0C
xh
0i
0j
0k
0l
1D
1E
1F
0G
0)
0*
0+
0,
$end
#5000
1"
1>
1O
1G
1P
1l
1J
1K
0W
0[
1?
1C
1\
0X
1!
1,
1]
#10000
0"
0>
0O
0G
0P
#15000
1"
1>
1O
1G
1P
0l
1k
1L
0J
0K
0\
1`
1W
1[
1B
0?
0C
1\
0`
1X
1a
0]
0,
1+
0!
1b
0a
1]
0b
#20000
0"
0>
0O
0G
0P
#25000
1"
1>
1O
1G
1P
1l
1J
1K
0W
0[
1?
1C
0\
1`
0X
1!
1,
1a
0]
1b
#30000
0"
0>
0O
0G
0P
#35000
1"
1>
1O
1G
1P
0l
0k
1j
1M
0L
0J
0K
0a
0e
1\
0`
1W
1[
1A
0B
0?
0C
0\
1X
1a
1e
1]
1f
0b
0,
0+
1*
0!
1g
0f
1b
0]
0g
#40000
0"
0>
0O
0G
0P
#45000
1"
1>
1O
1G
1P
1l
1J
1K
0W
0[
1?
1C
1\
0X
1!
1,
1]
#50000
0"
0>
0O
0G
0P
#55000
1"
1>
1O
1G
1P
0l
1k
1L
0J
0K
0\
1`
1W
1[
1B
0?
0C
1\
0`
1X
0a
0e
0]
0,
1+
0!
1f
0b
1a
1e
1]
0f
1b
1g
0g
#60000
0"
0>
0O
0G
0P
#65000
1"
1>
1O
1G
1P
1l
1J
1K
0W
0[
1?
1C
0\
1`
0X
1!
1,
0a
0e
0]
1f
0b
1g
#70000
0"
0>
0O
0G
0P
#75000
1"
1>
1O
1G
1P
0l
0k
0j
1i
1N
0M
0L
0J
0K
0f
1a
1e
1\
0`
1W
1[
1@
0A
0B
0?
0C
0\
1X
0a
1]
1f
1b
0g
0,
0+
0*
1)
0!
1g
0b
0]
#80000
0"
0>
0O
0G
0P
#85000
1"
1>
1O
1G
1P
1l
1J
1K
0W
0[
1?
1C
1\
0X
1!
1,
1]
#90000
0"
0>
0O
0G
0P
#95000
1"
1>
1O
1G
1P
0l
1k
1L
0J
0K
0\
1`
1W
1[
1B
0?
0C
1\
0`
1X
1a
0]
0,
1+
0!
1b
0a
1]
0b
#100000
0"
0>
0O
0G
0P
#105000
1"
1>
1O
1G
1P
1l
1J
1K
0W
0[
1?
1C
0\
1`
0X
1!
1,
1a
0]
1b
#110000
0"
0>
0O
0G
0P
#115000
1"
1>
1O
1G
1P
0l
0k
1j
1M
0L
0J
0K
0a
0e
1\
0`
1W
1[
1A
0B
0?
0C
0\
1X
1a
1e
1]
0f
0b
0,
0+
1*
0!
0g
1f
1b
0]
1g
#120000
0"
0>
0O
0G
0P
#125000
1"
1>
1O
1G
1P
1l
1J
1K
0W
0[
1?
1C
1\
0X
1!
1,
1]
#130000
0"
0>
0O
0G
0P
#135000
1"
1>
1O
1G
1P
0l
1k
1L
0J
0K
0\
1`
1W
1[
1B
0?
0C
1\
0`
1X
0a
0e
0]
0,
1+
0!
0f
0b
1a
1e
1]
1f
1b
0g
1g
#140000
0"
0>
0O
0G
0P
#145000
1"
1>
1O
1G
1P
1l
1J
1K
0W
0[
1?
1C
0\
1`
0X
1!
1,
0a
0e
0]
0f
0b
0g
#150000
0"
0>
0O
0G
0P
#155000
1"
1>
1O
1G
1P
0l
0k
0j
0i
0N
0M
0L
0J
0K
1f
1a
1e
1\
0`
1W
1[
0@
0A
0B
0?
0C
0\
1X
0a
1]
0f
1b
1g
0,
0+
0*
0)
0!
0g
0b
0]
#160000
0"
0>
0O
0G
0P
#165000
1"
1>
1O
1G
1P
1l
1J
1K
0W
0[
1?
1C
1\
0X
1!
1,
1]
#170000
0"
0>
0O
0G
0P
#175000
1"
1>
1O
1G
1P
0l
1k
1L
0J
0K
0\
1`
1W
1[
1B
0?
0C
1\
0`
1X
1a
0]
0,
1+
0!
1b
0a
1]
0b
#180000
0"
0>
0O
0G
0P
#185000
1"
1>
1O
1G
1P
1l
1J
1K
0W
0[
1?
1C
0\
1`
0X
1!
1,
1a
0]
1b
#190000
0"
0>
0O
0G
0P
#195000
1"
1>
1O
1G
1P
0l
0k
1j
1M
0L
0J
0K
0a
0e
1\
0`
1W
1[
1A
0B
0?
0C
0\
1X
1a
1e
1]
1f
0b
0,
0+
1*
0!
1g
0f
1b
0]
0g
#200000
0"
0>
0O
0G
0P
#205000
1"
1>
1O
1G
1P
1l
1J
1K
0W
0[
1?
1C
1\
0X
1!
1,
1]
#210000
0"
0>
0O
0G
0P
#215000
1"
1>
1O
1G
1P
0l
1k
1L
0J
0K
0\
1`
1W
1[
1B
0?
0C
1\
0`
1X
0a
0e
0]
0,
1+
0!
1f
0b
1a
1e
1]
0f
1b
1g
0g
#220000
0"
0>
0O
0G
0P
#225000
1"
1>
1O
1G
1P
1l
1J
1K
0W
0[
1?
1C
0\
1`
0X
1!
1,
0a
0e
0]
1f
0b
1g
#230000
0"
0>
0O
0G
0P
#235000
1"
1>
1O
1G
1P
0l
0k
0j
1i
1N
0M
0L
0J
0K
0f
1a
1e
1\
0`
1W
1[
1@
0A
0B
0?
0C
0\
1X
0a
1]
1f
1b
0g
0,
0+
0*
1)
0!
1g
0b
0]
#240000
0"
0>
0O
0G
0P
#245000
1"
1>
1O
1G
1P
1l
1J
1K
0W
0[
1?
1C
1\
0X
1!
1,
1]
#250000
0"
0>
0O
0G
0P
#255000
1"
1>
1O
1G
1P
0l
1k
1L
0J
0K
0\
1`
1W
1[
1B
0?
0C
1\
0`
1X
1a
0]
0,
1+
0!
1b
0a
1]
0b
#260000
0"
0>
0O
0G
0P
#265000
1"
1>
1O
1G
1P
1l
1J
1K
0W
0[
1?
1C
0\
1`
0X
1!
1,
1a
0]
1b
#270000
0"
0>
0O
0G
0P
#275000
1"
1>
1O
1G
1P
0l
0k
1j
1M
0L
0J
0K
0a
0e
1\
0`
1W
1[
1A
0B
0?
0C
0\
1X
1a
1e
1]
0f
0b
0,
0+
1*
0!
0g
1f
1b
0]
1g
#280000
0"
0>
0O
0G
0P
#285000
1"
1>
1O
1G
1P
1l
1J
1K
0W
0[
1?
1C
1\
0X
1!
1,
1]
#290000
0"
0>
0O
0G
0P
#295000
1"
1>
1O
1G
1P
0l
1k
1L
0J
0K
0\
1`
1W
1[
1B
0?
0C
1\
0`
1X
0a
0e
0]
0,
1+
0!
0f
0b
1a
1e
1]
1f
1b
0g
1g
#300000
0"
0>
0O
0G
0P
#305000
1"
1>
1O
1G
1P
1l
1J
1K
0W
0[
1?
1C
0\
1`
0X
1!
1,
0a
0e
0]
0f
0b
0g
#310000
0"
0>
0O
0G
0P
#315000
1"
1>
1O
1G
1P
0l
0k
0j
0i
0N
0M
0L
0J
0K
1f
1a
1e
1\
0`
1W
1[
0@
0A
0B
0?
0C
0\
1X
0a
1]
0f
1b
1g
0,
0+
0*
0)
0!
0g
0b
0]
#320000
0"
0>
0O
0G
0P
#325000
1"
1>
1O
1G
1P
1l
1J
1K
0W
0[
1?
1C
1\
0X
1!
1,
1]
#330000
0"
0>
0O
0G
0P
#335000
1"
1>
1O
1G
1P
0l
1k
1L
0J
0K
0\
1`
1W
1[
1B
0?
0C
1\
0`
1X
1a
0]
0,
1+
0!
1b
0a
1]
0b
#340000
0"
0>
0O
0G
0P
#345000
1"
1>
1O
1G
1P
1l
1J
1K
0W
0[
1?
1C
0\
1`
0X
1!
1,
1a
0]
1b
#350000
0"
0>
0O
0G
0P
#355000
1"
1>
1O
1G
1P
0l
0k
1j
1M
0L
0J
0K
0a
0e
1\
0`
1W
1[
1A
0B
0?
0C
0\
1X
1a
1e
1]
1f
0b
0,
0+
1*
0!
1g
0f
1b
0]
0g
#360000
0"
0>
0O
0G
0P
#365000
1"
1>
1O
1G
1P
1l
1J
1K
0W
0[
1?
1C
1\
0X
1!
1,
1]
#370000
0"
0>
0O
0G
0P
#375000
1"
1>
1O
1G
1P
0l
1k
1L
0J
0K
0\
1`
1W
1[
1B
0?
0C
1\
0`
1X
0a
0e
0]
0,
1+
0!
1f
0b
1a
1e
1]
0f
1b
1g
0g
#380000
0"
0>
0O
0G
0P
#385000
1"
1>
1O
1G
1P
1l
1J
1K
0W
0[
1?
1C
0\
1`
0X
1!
1,
0a
0e
0]
1f
0b
1g
#390000
0"
0>
0O
0G
0P
#395000
1"
1>
1O
1G
1P
0l
0k
0j
1i
1N
0M
0L
0J
0K
0f
1a
1e
1\
0`
1W
1[
1@
0A
0B
0?
0C
0\
1X
0a
1]
1f
1b
0g
0,
0+
0*
1)
0!
1g
0b
0]
#400000
0"
0>
0O
0G
0P
#405000
1"
1>
1O
1G
1P
1l
1J
1K
0W
0[
1?
1C
1\
0X
1!
1,
1]
#410000
0"
0>
0O
0G
0P
#415000
1"
1>
1O
1G
1P
0l
1k
1L
0J
0K
0\
1`
1W
1[
1B
0?
0C
1\
0`
1X
1a
0]
0,
1+
0!
1b
0a
1]
0b
#420000
0"
0>
0O
0G
0P
#425000
1"
1>
1O
1G
1P
1l
1J
1K
0W
0[
1?
1C
0\
1`
0X
1!
1,
1a
0]
1b
#430000
0"
0>
0O
0G
0P
#435000
1"
1>
1O
1G
1P
0l
0k
1j
1M
0L
0J
0K
0a
0e
1\
0`
1W
1[
1A
0B
0?
0C
0\
1X
1a
1e
1]
0f
0b
0,
0+
1*
0!
0g
1f
1b
0]
1g
#440000
0"
0>
0O
0G
0P
#445000
1"
1>
1O
1G
1P
1l
1J
1K
0W
0[
1?
1C
1\
0X
1!
1,
1]
#450000
0"
0>
0O
0G
0P
#455000
1"
1>
1O
1G
1P
0l
1k
1L
0J
0K
0\
1`
1W
1[
1B
0?
0C
1\
0`
1X
0a
0e
0]
0,
1+
0!
0f
0b
1a
1e
1]
1f
1b
0g
1g
#460000
0"
0>
0O
0G
0P
#465000
1"
1>
1O
1G
1P
1l
1J
1K
0W
0[
1?
1C
0\
1`
0X
1!
1,
0a
0e
0]
0f
0b
0g
#470000
0"
0>
0O
0G
0P
#475000
1"
1>
1O
1G
1P
0l
0k
0j
0i
0N
0M
0L
0J
0K
1f
1a
1e
1\
0`
1W
1[
0@
0A
0B
0?
0C
0\
1X
0a
1]
0f
1b
1g
0,
0+
0*
0)
0!
0g
0b
0]
#480000
0"
0>
0O
0G
0P
#485000
1"
1>
1O
1G
1P
1l
1J
1K
0W
0[
1?
1C
1\
0X
1!
1,
1]
#490000
0"
0>
0O
0G
0P
#495000
1"
1>
1O
1G
1P
0l
1k
1L
0J
0K
0\
1`
1W
1[
1B
0?
0C
1\
0`
1X
1a
0]
0,
1+
0!
1b
0a
1]
0b
#500000
0"
1(
0>
1;
1Q
0O
0G
0]
0P
#505000
1"
1>
1O
1G
1P
1l
0k
0L
1J
1K
0\
0W
0[
0B
1?
1C
1\
1,
0+
1!
#510000
0"
0>
0O
0G
0P
#515000
1"
1>
1O
1G
1P
#520000
0"
0>
0O
0G
0P
#525000
1"
1>
1O
1G
1P
#530000
0"
0>
0O
0G
0P
#535000
1"
1>
1O
1G
1P
#540000
0"
0>
0O
0G
0P
#545000
1"
1>
1O
1G
1P
#550000
0"
0>
0O
0G
0P
#555000
1"
1>
1O
1G
1P
#560000
0"
0>
0O
0G
0P
#565000
1"
1>
1O
1G
1P
#570000
0"
0>
0O
0G
0P
#575000
1"
1>
1O
1G
1P
#580000
0"
0>
0O
0G
0P
#585000
1"
1>
1O
1G
1P
#590000
0"
0>
0O
0G
0P
#595000
1"
1>
1O
1G
1P
#600000
0"
0>
0O
0G
0P
#605000
1"
1>
1O
1G
1P
#610000
0"
0>
0O
0G
0P
#615000
1"
1>
1O
1G
1P
#620000
0"
0>
0O
0G
0P
#625000
1"
1>
1O
1G
1P
#630000
0"
0>
0O
0G
0P
#635000
1"
1>
1O
1G
1P
#640000
0"
0>
0O
0G
0P
#645000
1"
1>
1O
1G
1P
#650000
0"
0>
0O
0G
0P
#655000
1"
1>
1O
1G
1P
#660000
0"
0>
0O
0G
0P
#665000
1"
1>
1O
1G
1P
#670000
0"
0>
0O
0G
0P
#675000
1"
1>
1O
1G
1P
#680000
0"
0>
0O
0G
0P
#685000
1"
1>
1O
1G
1P
#690000
0"
0>
0O
0G
0P
#695000
1"
1>
1O
1G
1P
#700000
0"
0>
0O
0G
0P
#705000
1"
1>
1O
1G
1P
#710000
0"
0>
0O
0G
0P
#715000
1"
1>
1O
1G
1P
#720000
0"
0>
0O
0G
0P
#725000
1"
1>
1O
1G
1P
#730000
0"
0>
0O
0G
0P
#735000
1"
1>
1O
1G
1P
#740000
0"
0>
0O
0G
0P
#745000
1"
1>
1O
1G
1P
#750000
0"
0>
0O
0G
0P
#755000
1"
1>
1O
1G
1P
#760000
0"
0>
0O
0G
0P
#765000
1"
1>
1O
1G
1P
#770000
0"
0>
0O
0G
0P
#775000
1"
1>
1O
1G
1P
#780000
0"
0>
0O
0G
0P
#785000
1"
1>
1O
1G
1P
#790000
0"
0>
0O
0G
0P
#795000
1"
1>
1O
1G
1P
#800000
0"
0>
0O
0G
0P
#805000
1"
1>
1O
1G
1P
#810000
0"
0>
0O
0G
0P
#815000
1"
1>
1O
1G
1P
#820000
0"
0>
0O
0G
0P
#825000
1"
1>
1O
1G
1P
#830000
0"
0>
0O
0G
0P
#835000
1"
1>
1O
1G
1P
#840000
0"
0>
0O
0G
0P
#845000
1"
1>
1O
1G
1P
#850000
0"
0>
0O
0G
0P
#855000
1"
1>
1O
1G
1P
#860000
0"
0>
0O
0G
0P
#865000
1"
1>
1O
1G
1P
#870000
0"
0>
0O
0G
0P
#875000
1"
1>
1O
1G
1P
#880000
0"
0>
0O
0G
0P
#885000
1"
1>
1O
1G
1P
#890000
0"
0>
0O
0G
0P
#895000
1"
1>
1O
1G
1P
#900000
0"
0>
0O
0G
0P
#905000
1"
1>
1O
1G
1P
#910000
0"
0>
0O
0G
0P
#915000
1"
1>
1O
1G
1P
#920000
0"
0>
0O
0G
0P
#925000
1"
1>
1O
1G
1P
#930000
0"
0>
0O
0G
0P
#935000
1"
1>
1O
1G
1P
#940000
0"
0>
0O
0G
0P
#945000
1"
1>
1O
1G
1P
#950000
0"
0>
0O
0G
0P
#955000
1"
1>
1O
1G
1P
#960000
0"
0>
0O
0G
0P
#965000
1"
1>
1O
1G
1P
#970000
0"
0>
0O
0G
0P
#975000
1"
1>
1O
1G
1P
#980000
0"
0>
0O
0G
0P
#985000
1"
1>
1O
1G
1P
#990000
0"
0>
0O
0G
0P
#995000
1"
1>
1O
1G
1P
